<svg width="164" height="58" viewBox="0 0 164 58" fill="none" xmlns="http://www.w3.org/2000/svg">
<rect x="0.5" y="0.5" width="163" height="57" rx="7.5" stroke="black"/>
<rect x="14" y="11" width="36" height="36" rx="7.11111" fill="black"/>
<path d="M31.8211 19.8965C31.8211 19.8965 33.6442 26.1441 34.0714 26.5713C34.4987 26.9985 40.7463 28.8216 40.7463 28.8216C40.7463 28.8216 34.4987 30.6447 34.0714 31.0719C33.6442 31.4992 31.8211 37.7467 31.8211 37.7467C31.8211 37.7467 29.998 31.4992 29.5708 31.0719C29.1436 30.6447 22.896 28.8216 22.896 28.8216C22.896 28.8216 29.1436 26.9985 29.5708 26.5713C29.998 26.1441 31.8211 19.8965 31.8211 19.8965Z" fill="white"/>
<path d="M64.392 21.18C63.532 21.18 62.802 20.99 62.202 20.61C61.602 20.23 61.144 19.702 60.828 19.026C60.516 18.35 60.36 17.568 60.36 16.68C60.36 15.792 60.516 15.01 60.828 14.334C61.144 13.658 61.602 13.13 62.202 12.75C62.802 12.37 63.532 12.18 64.392 12.18C65.392 12.18 66.214 12.434 66.858 12.942C67.506 13.45 67.952 14.134 68.196 14.994L67.11 15.282C66.934 14.638 66.62 14.13 66.168 13.758C65.716 13.386 65.124 13.2 64.392 13.2C63.748 13.2 63.212 13.346 62.784 13.638C62.356 13.93 62.034 14.338 61.818 14.862C61.602 15.382 61.492 15.988 61.488 16.68C61.484 17.368 61.59 17.974 61.806 18.498C62.022 19.018 62.346 19.426 62.778 19.722C63.21 20.014 63.748 20.16 64.392 20.16C65.124 20.16 65.716 19.974 66.168 19.602C66.62 19.226 66.934 18.718 67.11 18.078L68.196 18.366C67.952 19.222 67.506 19.906 66.858 20.418C66.214 20.926 65.392 21.18 64.392 21.18ZM69.5059 21L69.5119 14.52H70.5919V17.64L73.3099 14.52H74.6959L71.8339 17.76L75.0319 21H73.5379L70.5919 17.88V21H69.5059ZM77.4711 21.18C76.9871 21.18 76.5811 21.092 76.2531 20.916C75.9291 20.736 75.6831 20.5 75.5151 20.208C75.3511 19.916 75.2691 19.596 75.2691 19.248C75.2691 18.908 75.3331 18.614 75.4611 18.366C75.5931 18.114 75.7771 17.906 76.0131 17.742C76.2491 17.574 76.5311 17.442 76.8591 17.346C77.1671 17.262 77.5111 17.19 77.8911 17.13C78.2751 17.066 78.6631 17.008 79.0551 16.956C79.4471 16.904 79.8131 16.854 80.1531 16.806L79.7691 17.028C79.7811 16.452 79.6651 16.026 79.4211 15.75C79.1811 15.474 78.7651 15.336 78.1731 15.336C77.7811 15.336 77.4371 15.426 77.1411 15.606C76.8491 15.782 76.6431 16.07 76.5231 16.47L75.5091 16.164C75.6651 15.596 75.9671 15.15 76.4151 14.826C76.8631 14.502 77.4531 14.34 78.1851 14.34C78.7731 14.34 79.2771 14.446 79.6971 14.658C80.1211 14.866 80.4251 15.182 80.6091 15.606C80.7011 15.806 80.7591 16.024 80.7831 16.26C80.8071 16.492 80.8191 16.736 80.8191 16.992V21H79.8711V19.446L80.0931 19.59C79.8491 20.114 79.5071 20.51 79.0671 20.778C78.6311 21.046 78.0991 21.18 77.4711 21.18ZM77.6331 20.286C78.0171 20.286 78.3491 20.218 78.6291 20.082C78.9131 19.942 79.1411 19.76 79.3131 19.536C79.4851 19.308 79.5971 19.06 79.6491 18.792C79.7091 18.592 79.7411 18.37 79.7451 18.126C79.7531 17.878 79.7571 17.688 79.7571 17.556L80.1291 17.718C79.7811 17.766 79.4391 17.812 79.1031 17.856C78.7671 17.9 78.4491 17.948 78.1491 18C77.8491 18.048 77.5791 18.106 77.3391 18.174C77.1631 18.23 76.9971 18.302 76.8411 18.39C76.6891 18.478 76.5651 18.592 76.4691 18.732C76.3771 18.868 76.3311 19.038 76.3311 19.242C76.3311 19.418 76.3751 19.586 76.4631 19.746C76.5551 19.906 76.6951 20.036 76.8831 20.136C77.0751 20.236 77.3251 20.286 77.6331 20.286ZM86.2791 21V18.666C86.0631 18.774 85.8011 18.866 85.4931 18.942C85.1891 19.018 84.8631 19.056 84.5151 19.056C83.8551 19.056 83.3231 18.908 82.9191 18.612C82.5151 18.316 82.2511 17.89 82.1271 17.334C82.0911 17.166 82.0651 16.992 82.0491 16.812C82.0371 16.632 82.0291 16.468 82.0251 16.32C82.0211 16.172 82.0191 16.064 82.0191 15.996V14.52H83.0991V15.996C83.0991 16.112 83.1031 16.256 83.1111 16.428C83.1191 16.596 83.1391 16.76 83.1711 16.92C83.2511 17.316 83.4171 17.614 83.6691 17.814C83.9251 18.014 84.2851 18.114 84.7491 18.114C85.0611 18.114 85.3491 18.074 85.6131 17.994C85.8771 17.914 86.0991 17.808 86.2791 17.676V14.52H87.3531V21H86.2791ZM90.8773 21.18C90.3933 21.18 89.9873 21.092 89.6593 20.916C89.3353 20.736 89.0893 20.5 88.9213 20.208C88.7573 19.916 88.6753 19.596 88.6753 19.248C88.6753 18.908 88.7393 18.614 88.8673 18.366C88.9993 18.114 89.1833 17.906 89.4193 17.742C89.6553 17.574 89.9373 17.442 90.2653 17.346C90.5733 17.262 90.9173 17.19 91.2973 17.13C91.6813 17.066 92.0693 17.008 92.4613 16.956C92.8533 16.904 93.2193 16.854 93.5593 16.806L93.1753 17.028C93.1873 16.452 93.0713 16.026 92.8273 15.75C92.5873 15.474 92.1713 15.336 91.5793 15.336C91.1873 15.336 90.8433 15.426 90.5473 15.606C90.2553 15.782 90.0493 16.07 89.9293 16.47L88.9153 16.164C89.0713 15.596 89.3733 15.15 89.8213 14.826C90.2693 14.502 90.8593 14.34 91.5913 14.34C92.1793 14.34 92.6833 14.446 93.1033 14.658C93.5273 14.866 93.8313 15.182 94.0153 15.606C94.1073 15.806 94.1653 16.024 94.1893 16.26C94.2133 16.492 94.2253 16.736 94.2253 16.992V21H93.2773V19.446L93.4993 19.59C93.2553 20.114 92.9133 20.51 92.4733 20.778C92.0373 21.046 91.5053 21.18 90.8773 21.18ZM91.0393 20.286C91.4233 20.286 91.7553 20.218 92.0353 20.082C92.3193 19.942 92.5473 19.76 92.7193 19.536C92.8913 19.308 93.0033 19.06 93.0553 18.792C93.1153 18.592 93.1473 18.37 93.1513 18.126C93.1593 17.878 93.1633 17.688 93.1633 17.556L93.5353 17.718C93.1873 17.766 92.8453 17.812 92.5093 17.856C92.1733 17.9 91.8553 17.948 91.5553 18C91.2553 18.048 90.9853 18.106 90.7453 18.174C90.5693 18.23 90.4033 18.302 90.2473 18.39C90.0953 18.478 89.9713 18.592 89.8753 18.732C89.7833 18.868 89.7373 19.038 89.7373 19.242C89.7373 19.418 89.7813 19.586 89.8693 19.746C89.9613 19.906 90.1013 20.036 90.2893 20.136C90.4813 20.236 90.7313 20.286 91.0393 20.286ZM98.5753 13.764C98.2753 13.764 98.0013 13.69 97.7533 13.542C97.5053 13.394 97.3073 13.198 97.1593 12.954C97.0113 12.706 96.9373 12.43 96.9373 12.126H97.8013C97.8013 12.338 97.8773 12.52 98.0293 12.672C98.1813 12.824 98.3633 12.9 98.5753 12.9C98.7913 12.9 98.9733 12.824 99.1213 12.672C99.2733 12.52 99.3493 12.338 99.3493 12.126H100.213C100.213 12.43 100.139 12.706 99.9913 12.954C99.8473 13.198 99.6493 13.394 99.3973 13.542C99.1493 13.69 98.8753 13.764 98.5753 13.764ZM101.089 14.52V21H100.057V16.224L96.6613 21H95.7793V14.52H96.8113V19.23L100.213 14.52H101.089ZM104.486 21V15.492H102.23V14.52H107.81V15.492H105.554V21H104.486ZM111.753 21.18C111.117 21.18 110.561 21.04 110.085 20.76C109.613 20.476 109.245 20.082 108.981 19.578C108.717 19.07 108.585 18.478 108.585 17.802C108.585 17.094 108.715 16.482 108.975 15.966C109.235 15.446 109.597 15.046 110.061 14.766C110.529 14.482 111.077 14.34 111.705 14.34C112.357 14.34 112.911 14.49 113.367 14.79C113.827 15.09 114.171 15.518 114.399 16.074C114.631 16.63 114.731 17.292 114.699 18.06H113.619V17.676C113.607 16.88 113.445 16.286 113.133 15.894C112.821 15.498 112.357 15.3 111.741 15.3C111.081 15.3 110.579 15.512 110.235 15.936C109.891 16.36 109.719 16.968 109.719 17.76C109.719 18.524 109.891 19.116 110.235 19.536C110.579 19.956 111.069 20.166 111.705 20.166C112.133 20.166 112.505 20.068 112.821 19.872C113.137 19.676 113.385 19.394 113.565 19.026L114.591 19.38C114.339 19.952 113.959 20.396 113.451 20.712C112.947 21.024 112.381 21.18 111.753 21.18ZM109.359 18.06V17.202H114.147V18.06H109.359ZM117.958 22.44V20.118C118.322 20.118 118.582 20 118.738 19.764C118.894 19.524 119.02 19.13 119.116 18.582C119.18 18.238 119.232 17.87 119.272 17.478C119.312 17.086 119.346 16.65 119.374 16.17C119.406 15.686 119.436 15.136 119.464 14.52H123.928V20.118H124.558V22.44H123.538V21H118.978V22.44H117.958ZM119.602 20.118H122.86V15.402H120.43C120.418 15.686 120.402 15.984 120.382 16.296C120.362 16.604 120.338 16.912 120.31 17.22C120.286 17.528 120.256 17.82 120.22 18.096C120.188 18.368 120.15 18.612 120.106 18.828C120.054 19.128 119.994 19.382 119.926 19.59C119.858 19.798 119.75 19.974 119.602 20.118ZM125.162 21V20.082C125.402 20.126 125.584 20.118 125.708 20.058C125.836 19.994 125.93 19.884 125.99 19.728C126.054 19.568 126.106 19.368 126.146 19.128C126.214 18.748 126.272 18.324 126.32 17.856C126.372 17.388 126.418 16.876 126.458 16.32C126.502 15.76 126.542 15.16 126.578 14.52H131.108V21H130.04V15.534H127.55C127.526 15.902 127.496 16.28 127.46 16.668C127.428 17.056 127.394 17.434 127.358 17.802C127.322 18.166 127.282 18.506 127.238 18.822C127.198 19.134 127.154 19.404 127.106 19.632C127.03 20.024 126.924 20.338 126.788 20.574C126.652 20.806 126.456 20.956 126.2 21.024C125.944 21.096 125.598 21.088 125.162 21ZM136.795 21V18.654H135.397C135.233 18.654 135.051 18.648 134.851 18.636C134.655 18.62 134.471 18.598 134.299 18.57C133.831 18.482 133.435 18.276 133.111 17.952C132.791 17.628 132.631 17.18 132.631 16.608C132.631 16.052 132.781 15.606 133.081 15.27C133.385 14.93 133.759 14.71 134.203 14.61C134.403 14.562 134.605 14.536 134.809 14.532C135.017 14.524 135.193 14.52 135.337 14.52H137.863L137.869 21H136.795ZM132.433 21L134.155 18.36H135.307L133.585 21H132.433ZM135.319 17.772H136.795V15.402H135.319C135.227 15.402 135.105 15.406 134.953 15.414C134.805 15.422 134.663 15.446 134.527 15.486C134.399 15.522 134.273 15.588 134.149 15.684C134.029 15.78 133.929 15.904 133.849 16.056C133.769 16.208 133.729 16.388 133.729 16.596C133.729 16.896 133.813 17.14 133.981 17.328C134.149 17.512 134.353 17.636 134.593 17.7C134.725 17.732 134.855 17.752 134.983 17.76C135.115 17.768 135.227 17.772 135.319 17.772Z" fill="black"/>
<path d="M60.48 46L66.096 28.72H69.708L75.324 46H72.72L67.548 30.232H68.196L63.084 46H60.48ZM63.396 42.1V39.748H72.42V42.1H63.396ZM86.5729 46V39.628C86.5729 39.124 86.5289 38.608 86.4409 38.08C86.3609 37.544 86.2009 37.048 85.9609 36.592C85.7289 36.136 85.3969 35.768 84.9649 35.488C84.5409 35.208 83.9849 35.068 83.2969 35.068C82.8489 35.068 82.4249 35.144 82.0249 35.296C81.6249 35.44 81.2729 35.676 80.9689 36.004C80.6729 36.332 80.4369 36.764 80.2609 37.3C80.0929 37.836 80.0089 38.488 80.0089 39.256L78.4489 38.668C78.4489 37.492 78.6689 36.456 79.1089 35.56C79.5489 34.656 80.1809 33.952 81.0049 33.448C81.8289 32.944 82.8249 32.692 83.9929 32.692C84.8889 32.692 85.6409 32.836 86.2489 33.124C86.8569 33.412 87.3489 33.792 87.7249 34.264C88.1089 34.728 88.4009 35.236 88.6009 35.788C88.8009 36.34 88.9369 36.88 89.0089 37.408C89.0809 37.936 89.1169 38.4 89.1169 38.8V46H86.5729ZM77.4649 46V33.04H79.7089V36.784H80.0089V46H77.4649ZM97.2264 46.36C96.0184 46.36 94.9744 46.06 94.0944 45.46C93.2224 44.86 92.5464 44.044 92.0664 43.012C91.5944 41.972 91.3584 40.804 91.3584 39.508C91.3584 38.204 91.5984 37.04 92.0784 36.016C92.5584 34.984 93.2384 34.172 94.1184 33.58C95.0064 32.98 96.0584 32.68 97.2744 32.68C98.4984 32.68 99.5264 32.98 100.358 33.58C101.198 34.172 101.83 34.984 102.254 36.016C102.686 37.048 102.902 38.212 102.902 39.508C102.902 40.804 102.686 41.968 102.254 43C101.822 44.032 101.186 44.852 100.346 45.46C99.5064 46.06 98.4664 46.36 97.2264 46.36ZM97.5744 44.092C98.3984 44.092 99.0704 43.896 99.5904 43.504C100.11 43.112 100.49 42.572 100.73 41.884C100.97 41.196 101.09 40.404 101.09 39.508C101.09 38.612 100.966 37.82 100.718 37.132C100.478 36.444 100.102 35.908 99.5904 35.524C99.0864 35.14 98.4424 34.948 97.6584 34.948C96.8264 34.948 96.1424 35.152 95.6064 35.56C95.0704 35.968 94.6704 36.516 94.4064 37.204C94.1504 37.892 94.0224 38.66 94.0224 39.508C94.0224 40.364 94.1504 41.14 94.4064 41.836C94.6704 42.524 95.0624 43.072 95.5824 43.48C96.1104 43.888 96.7744 44.092 97.5744 44.092ZM101.09 46V36.676H100.802V28.72H103.322V46H101.09ZM106.68 46V33.04H108.912V36.184L108.6 35.776C108.76 35.36 108.968 34.98 109.224 34.636C109.48 34.284 109.776 33.996 110.112 33.772C110.44 33.532 110.804 33.348 111.204 33.22C111.612 33.084 112.028 33.004 112.452 32.98C112.876 32.948 113.284 32.968 113.676 33.04V35.392C113.252 35.28 112.78 35.248 112.26 35.296C111.748 35.344 111.276 35.508 110.844 35.788C110.436 36.052 110.112 36.372 109.872 36.748C109.64 37.124 109.472 37.544 109.368 38.008C109.264 38.464 109.212 38.948 109.212 39.46V46H106.68ZM121.355 46.36C120.059 46.36 118.935 46.068 117.983 45.484C117.031 44.9 116.295 44.096 115.775 43.072C115.263 42.04 115.007 40.852 115.007 39.508C115.007 38.156 115.271 36.968 115.799 35.944C116.327 34.912 117.067 34.112 118.019 33.544C118.971 32.968 120.083 32.68 121.355 32.68C122.651 32.68 123.775 32.972 124.727 33.556C125.679 34.14 126.415 34.944 126.935 35.968C127.455 36.992 127.715 38.172 127.715 39.508C127.715 40.86 127.451 42.052 126.923 43.084C126.403 44.108 125.667 44.912 124.715 45.496C123.763 46.072 122.643 46.36 121.355 46.36ZM121.355 43.996C122.595 43.996 123.519 43.58 124.127 42.748C124.743 41.908 125.051 40.828 125.051 39.508C125.051 38.156 124.739 37.076 124.115 36.268C123.499 35.452 122.579 35.044 121.355 35.044C120.515 35.044 119.823 35.236 119.279 35.62C118.735 35.996 118.331 36.52 118.067 37.192C117.803 37.856 117.671 38.628 117.671 39.508C117.671 40.868 117.983 41.956 118.607 42.772C119.231 43.588 120.147 43.996 121.355 43.996ZM130.592 30.916V28.48H133.1V30.916H130.592ZM130.592 46V33.04H133.1V46H130.592ZM141.851 46.36C140.643 46.36 139.599 46.06 138.719 45.46C137.847 44.86 137.171 44.044 136.691 43.012C136.219 41.972 135.983 40.804 135.983 39.508C135.983 38.204 136.223 37.04 136.703 36.016C137.183 34.984 137.863 34.172 138.743 33.58C139.631 32.98 140.683 32.68 141.899 32.68C143.123 32.68 144.151 32.98 144.983 33.58C145.823 34.172 146.455 34.984 146.879 36.016C147.311 37.048 147.527 38.212 147.527 39.508C147.527 40.804 147.311 41.968 146.879 43C146.447 44.032 145.811 44.852 144.971 45.46C144.131 46.06 143.091 46.36 141.851 46.36ZM142.199 44.092C143.023 44.092 143.695 43.896 144.215 43.504C144.735 43.112 145.115 42.572 145.355 41.884C145.595 41.196 145.715 40.404 145.715 39.508C145.715 38.612 145.591 37.82 145.343 37.132C145.103 36.444 144.727 35.908 144.215 35.524C143.711 35.14 143.067 34.948 142.283 34.948C141.451 34.948 140.767 35.152 140.231 35.56C139.695 35.968 139.295 36.516 139.031 37.204C138.775 37.892 138.647 38.66 138.647 39.508C138.647 40.364 138.775 41.14 139.031 41.836C139.295 42.524 139.687 43.072 140.207 43.48C140.735 43.888 141.399 44.092 142.199 44.092ZM145.715 46V36.676H145.427V28.72H147.947V46H145.715Z" fill="black"/>
</svg>
