<svg width="226" height="226" viewBox="0 0 226 226" fill="none" xmlns="http://www.w3.org/2000/svg">
<path d="M113 208.16C154.287 208.16 187.756 199.353 187.756 188.489C187.756 177.625 154.287 168.818 113 168.818C71.7134 168.818 38.2439 177.625 38.2439 188.489C38.2439 199.353 71.7134 208.16 113 208.16Z" fill="#EBEBEB"/>
<path d="M178.025 54.1729C177.492 54.1933 176.97 54.3209 176.488 54.548C176.012 54.7744 175.592 55.1041 175.259 55.5129C174.926 55.9218 174.688 56.3997 174.562 56.912C174.471 57.3715 174.44 57.8412 174.472 58.3087C174.472 62.2998 174.495 68.0673 174.513 75.1909C174.513 78.7572 174.513 82.6624 174.513 86.8525C174.513 87.9011 174.513 88.9633 174.513 90.0481C174.513 90.586 174.513 91.1419 174.513 91.6798C174.54 92.2206 174.695 92.7473 174.965 93.2166C175.233 93.6997 175.612 94.1122 176.071 94.4202C176.53 94.7282 177.056 94.9229 177.604 94.9885C177.887 95.0137 178.171 95.0227 178.454 95.0156H181.08H211.739C212.399 95.0167 213.046 94.832 213.605 94.4827C214.165 94.1334 214.615 93.6335 214.903 93.0403C215.181 92.4465 215.303 91.7914 215.256 91.1374V81.3019C215.256 76.1717 215.256 71.2268 215.256 66.5125C215.256 64.1575 215.256 61.8569 215.256 59.624V57.9651C215.274 57.4314 215.179 56.8998 214.976 56.4057C214.769 55.9276 214.459 55.5011 214.069 55.1565C213.678 54.812 213.216 54.5579 212.716 54.4124C212.221 54.2868 211.711 54.238 211.202 54.2678H206.682H201.09L184.213 54.2407H179.625H178.432C178.16 54.2407 178.025 54.2407 178.025 54.2407H178.432H179.625H184.213L201.099 54.2045H206.691H211.211C211.738 54.1722 212.267 54.221 212.779 54.3491C213.307 54.5025 213.794 54.7703 214.207 55.1336C214.619 55.4969 214.947 55.9467 215.166 56.4509C215.379 56.9708 215.481 57.5299 215.464 58.0917C215.464 58.6386 215.464 59.1946 215.464 59.7505C215.464 61.9834 215.464 64.2705 215.464 66.639C215.464 71.3534 215.464 76.2983 215.464 81.4285C215.464 83.9913 215.464 86.6039 215.464 89.2526V91.2459C215.509 91.9343 215.38 92.6228 215.089 93.2483C214.782 93.8803 214.305 94.4137 213.71 94.7876C213.116 95.1616 212.428 95.3612 211.726 95.3636H181.067H178.45C178.157 95.371 177.864 95.3604 177.573 95.332C176.988 95.2594 176.43 95.0504 175.941 94.7218C175.463 94.3931 175.066 93.9604 174.779 93.4562C174.503 92.955 174.349 92.3962 174.327 91.8245C174.327 91.264 174.327 90.7261 174.327 90.1837C174.327 89.0989 174.327 88.0367 174.327 86.9881C174.327 82.798 174.327 78.8927 174.327 75.3265C174.327 68.2029 174.355 62.4354 174.364 58.4443C174.338 57.9708 174.379 57.4961 174.486 57.034C174.589 56.6284 174.76 56.2433 174.992 55.895C175.36 55.3516 175.87 54.9188 176.465 54.6429C176.83 54.476 177.219 54.3691 177.618 54.3265C177.885 54.1683 178.025 54.1729 178.025 54.1729Z" fill="#EBEBEB"/>
<path d="M137.259 54.1729C136.727 54.1936 136.204 54.3212 135.722 54.548C135.246 54.7744 134.826 55.1041 134.493 55.5129C134.16 55.9218 133.922 56.3997 133.797 56.912C133.699 57.3691 133.664 57.8375 133.693 58.3041C133.693 62.2953 133.693 68.0628 133.729 75.1863C133.729 78.7526 133.729 82.6579 133.729 86.8479C133.729 87.8966 133.729 88.9588 133.729 90.0436C133.729 90.5815 133.729 91.1374 133.729 91.6753C133.758 92.2157 133.913 92.7419 134.181 93.2121C134.453 93.6886 134.828 94.098 135.279 94.4099C135.742 94.7171 136.27 94.9135 136.821 94.9839C137.103 95.0091 137.387 95.0182 137.67 95.0111H140.296H170.956C171.615 95.0133 172.263 94.829 172.822 94.4796C173.382 94.1301 173.832 93.6297 174.12 93.0358C174.398 92.442 174.519 91.7869 174.472 91.1329V81.3019C174.472 76.1717 174.472 71.2268 174.472 66.5125C174.472 64.1575 174.472 61.8569 174.472 59.624V57.9651C174.493 57.4312 174.397 56.8991 174.192 56.4057C173.985 55.9276 173.675 55.5011 173.285 55.1565C172.894 54.812 172.432 54.5579 171.932 54.4124C171.438 54.2868 170.927 54.238 170.418 54.2678H165.898H160.302L143.451 54.2407H138.859H137.666C137.395 54.2407 137.259 54.2407 137.259 54.2407H137.666H138.859H143.451L160.334 54.2045H165.929H170.449C170.977 54.1722 171.505 54.221 172.018 54.3491C172.546 54.5025 173.033 54.7703 173.446 55.1336C173.858 55.4969 174.186 55.9467 174.404 56.4509C174.618 56.9708 174.72 57.5299 174.703 58.0917C174.703 58.6386 174.703 59.1946 174.703 59.7505C174.703 61.9834 174.703 64.2705 174.703 66.639C174.703 71.3534 174.703 76.2983 174.703 81.4285C174.703 83.9913 174.703 86.6039 174.703 89.2526V91.2459C174.748 91.9343 174.618 92.6228 174.328 93.2483C174.021 93.8803 173.544 94.4137 172.949 94.7876C172.355 95.1616 171.667 95.3612 170.965 95.3636H140.305H137.679C137.387 95.3709 137.094 95.3603 136.802 95.332C136.218 95.2594 135.659 95.0504 135.171 94.7218C134.693 94.3931 134.296 93.9604 134.009 93.4562C133.733 92.955 133.578 92.3962 133.557 91.8245C133.557 91.264 133.557 90.7261 133.557 90.1837C133.557 89.0989 133.557 88.0367 133.557 86.9881C133.557 82.798 133.557 78.8927 133.557 75.3265C133.557 68.2029 133.584 62.4354 133.593 58.4443C133.572 57.9709 133.614 57.4968 133.715 57.034C133.818 56.6284 133.99 56.2433 134.222 55.895C134.59 55.3516 135.099 54.9188 135.695 54.6429C136.06 54.476 136.449 54.3691 136.848 54.3265C137.119 54.1683 137.259 54.1729 137.259 54.1729Z" fill="#EBEBEB"/>
<path d="M137.774 73.6218C137.833 75.2128 137.874 77.7124 137.901 79.5746C137.928 81.4368 140.473 82.1962 141.381 80.5599C141.419 80.4894 141.454 80.417 141.485 80.343C141.937 79.1723 141.838 77.8751 141.883 76.6185C142.017 72.7799 143.617 69.1387 146.354 66.4434C149.09 63.7482 152.755 62.2036 156.595 62.1274C157.698 62.1274 158.833 62.1997 159.841 61.6257C160.306 61.3725 160.653 60.9474 160.808 60.4414C161.233 58.873 159.452 57.8334 157.938 57.6707C155.6 57.4695 153.25 57.4514 150.909 57.6164C148.351 57.743 145.485 57.6164 143.112 58.5702C140.531 59.5962 138.289 61.3228 138.045 65.0021C137.86 67.7729 137.67 70.8465 137.774 73.6218Z" fill="#FAFAFA"/>
<path d="M55.203 54.1722C54.6708 54.1934 54.1483 54.3209 53.6662 54.5474C53.1894 54.7725 52.7693 55.1017 52.4368 55.5109C52.1043 55.92 51.868 56.3986 51.7452 56.9114C51.6455 57.3682 51.609 57.8367 51.6367 58.3035C51.6367 62.2947 51.6593 68.0622 51.6729 75.1857C51.6729 78.752 51.6729 82.6573 51.6729 86.8473C51.6729 87.896 51.6729 88.9582 51.6729 90.043C51.6729 90.5808 51.6729 91.1368 51.6729 91.6747C51.7022 92.2151 51.8569 92.7413 52.1249 93.2115C52.3966 93.688 52.772 94.0973 53.2232 94.4093C53.6861 94.7165 54.2135 94.9129 54.7645 94.9833C55.0471 95.0084 55.3308 95.0174 55.6143 95.0104H58.2404H88.9041C89.5638 95.0116 90.2104 94.8269 90.77 94.4776C91.3296 94.1282 91.7795 93.6283 92.0681 93.0352C92.3426 92.4403 92.4623 91.7858 92.4162 91.1323V89.139C92.4162 86.4902 92.4162 83.8777 92.4162 81.3148C92.4162 76.1846 92.4162 71.2397 92.4162 66.5254C92.4162 64.1705 92.4162 61.8698 92.4162 59.6369C92.4162 59.081 92.4162 58.525 92.4162 57.9781C92.4328 57.444 92.3358 56.9124 92.1314 56.4187C91.9257 55.9399 91.6162 55.5127 91.2254 55.168C90.8346 54.8233 90.3721 54.5697 89.8714 54.4254C89.3755 54.3 88.8633 54.2512 88.3527 54.2807H83.8327H78.2369L61.3954 54.24L78.2776 54.2039H83.8733H88.3933C88.9105 54.1379 89.4347 54.1501 89.9482 54.24C90.4751 54.3942 90.9617 54.6624 91.3733 55.0257C91.785 55.3889 92.1117 55.8382 92.3303 56.3418C92.5477 56.8607 92.651 57.4203 92.6331 57.9826V59.6414C92.6331 61.8743 92.6331 64.1614 92.6331 66.5299C92.6331 71.2443 92.6331 76.1891 92.6331 81.3194V91.1368C92.6799 91.8253 92.5508 92.5143 92.2579 93.1391C91.9524 93.7708 91.4756 94.304 90.8819 94.678C90.2881 95.052 89.6013 95.2517 88.8996 95.2545H58.2359H55.6098C55.3171 95.2618 55.0243 95.2512 54.7329 95.2229C54.1488 95.1497 53.59 94.9407 53.1012 94.6127C52.6244 94.2827 52.2275 93.8503 51.9395 93.3471C51.6656 92.8451 51.5109 92.2867 51.4875 91.7154C51.4875 91.1549 51.4875 90.617 51.4875 90.0746C51.4875 88.9898 51.4875 87.9276 51.4875 86.879C51.4875 82.6889 51.4875 78.7836 51.4875 75.2174C51.4875 68.0938 51.5192 62.3263 51.5282 58.3351C51.5038 57.8619 51.5433 57.3876 51.6457 56.9249C51.7503 56.5191 51.923 56.1339 52.1565 55.7859C52.5249 55.2425 53.0343 54.8097 53.63 54.5338C53.9929 54.3664 54.3807 54.2595 54.7781 54.2174C55.0674 54.1677 55.203 54.1722 55.203 54.1722Z" fill="#EBEBEB"/>
<path d="M55.7183 73.6217C55.777 75.2128 55.8222 77.7123 55.8493 79.5746C55.8765 81.4368 58.4167 82.1962 59.3252 80.5599C59.3653 80.4904 59.4001 80.4178 59.4292 80.343C59.8812 79.1723 59.7817 77.8751 59.8269 76.6185C59.9636 72.7799 61.5649 69.1393 64.3019 66.4443C67.0388 63.7494 70.7038 62.2047 74.5441 62.1274C75.6424 62.1274 76.7769 62.1997 77.7849 61.6257C78.2497 61.3725 78.5969 60.9474 78.7522 60.4414C79.1771 58.873 77.3962 57.8334 75.882 57.6707C73.5456 57.4695 71.1971 57.4514 68.8579 57.6164C66.2951 57.743 63.4339 57.6164 61.0564 58.5701C58.4755 59.5962 56.2335 61.3228 55.994 65.0021C55.7576 67.8689 55.6655 70.7457 55.7183 73.6217Z" fill="#FAFAFA"/>
<path d="M96.2762 54.1727C95.744 54.1935 95.2213 54.3211 94.7394 54.5479C94.1575 54.8279 93.6612 55.2587 93.302 55.7954C93.0787 56.138 92.9137 56.5153 92.8139 56.9119C92.7158 57.369 92.6808 57.8374 92.7099 58.304C92.7099 62.2952 92.7099 68.0627 92.7461 75.1862C92.7461 78.7525 92.7461 82.6578 92.7461 86.8478C92.7461 87.8965 92.7461 88.9587 92.7461 90.0435C92.7461 90.5813 92.7461 91.1373 92.7461 91.6752C92.7754 92.2156 92.9301 92.7418 93.1981 93.212C93.4698 93.6885 93.8452 94.0978 94.2964 94.4098C94.7593 94.717 95.2867 94.9134 95.8378 94.9838C96.1203 95.0089 96.404 95.018 96.6875 95.0109H99.3136H129.977C130.637 95.0131 131.284 94.8289 131.844 94.4794C132.404 94.13 132.854 93.6295 133.141 93.0357C133.419 92.4419 133.541 91.7868 133.494 91.1328V81.3018C133.494 76.1716 133.494 71.2267 133.494 66.5123C133.494 64.1574 133.494 61.8567 133.494 59.6239V57.965C133.514 57.4311 133.419 56.899 133.214 56.4056C133.007 55.9275 132.697 55.501 132.306 55.1564C131.916 54.8118 131.454 54.5578 130.954 54.4123C130.459 54.2867 129.949 54.2379 129.439 54.2677H124.919H119.324L102.473 54.2405L119.355 54.2044H124.951H129.471C129.998 54.1721 130.527 54.2208 131.04 54.349C131.567 54.5023 132.055 54.7702 132.467 55.1335C132.88 55.4968 133.207 55.9466 133.426 56.4508C133.639 56.9709 133.742 57.5296 133.729 58.0916V59.7504C133.729 61.9833 133.729 64.2704 133.729 66.6389C133.729 71.3532 133.729 76.2981 133.729 81.4283C133.729 83.9912 133.729 86.6037 133.729 89.2525V91.2458C133.747 91.8899 133.614 92.5293 133.34 93.1125C133.034 93.7439 132.557 94.2768 131.964 94.6507C131.37 95.0246 130.683 95.2246 129.982 95.2279H99.3182H96.7282C96.4355 95.2352 96.1427 95.2246 95.8513 95.1963C95.2672 95.123 94.7084 94.9141 94.2196 94.586C93.7428 94.2561 93.3459 93.8237 93.058 93.3205C92.782 92.8193 92.6272 92.2605 92.606 91.6887C92.606 91.1283 92.606 90.5904 92.606 90.048C92.606 88.9632 92.606 87.901 92.606 86.8523C92.606 82.6623 92.606 78.757 92.606 75.1907C92.606 68.0672 92.6331 62.2997 92.6421 58.3085C92.6213 57.8351 92.6624 57.3611 92.7642 56.8983C92.8672 56.4927 93.0384 56.1075 93.2704 55.7593C93.6388 55.2159 94.1482 54.7831 94.7439 54.5072C95.1085 54.3402 95.4978 54.2334 95.8965 54.1908C96.1451 54.1682 96.2762 54.1727 96.2762 54.1727Z" fill="#EBEBEB"/>
<path d="M130.764 75.4208C130.71 73.8298 130.664 71.3528 130.637 69.468C130.61 67.5831 128.07 66.8464 127.157 68.4871C127.119 68.5557 127.086 68.6267 127.057 68.6996C126.605 69.8703 126.705 71.172 126.66 72.4241C126.523 76.2627 124.922 79.9033 122.185 82.5982C119.448 85.2932 115.783 86.8379 111.943 86.9152C110.84 86.9378 109.71 86.8429 108.702 87.4169C108.47 87.5412 108.265 87.7103 108.099 87.9144C107.933 88.1184 107.809 88.3534 107.734 88.6057C107.31 90.1741 109.09 91.2137 110.6 91.3764C112.938 91.5738 115.288 91.5904 117.629 91.4261C120.187 91.2996 123.053 91.4261 125.43 90.4769C128.007 89.4509 130.249 87.7243 130.493 84.045C130.673 81.2742 130.868 78.1961 130.764 75.4208Z" fill="#FAFAFA"/>
<path d="M212.463 75.4208C212.404 73.8298 212.363 71.3528 212.336 69.468C212.309 67.5831 209.769 66.8464 208.856 68.4871C208.818 68.5557 208.785 68.6267 208.756 68.6996C208.304 69.8703 208.399 71.172 208.359 72.4241C208.222 76.2627 206.621 79.9033 203.884 82.5982C201.147 85.2932 197.482 86.8379 193.642 86.9152C192.539 86.9378 191.409 86.8429 190.401 87.4169C189.935 87.6649 189.587 88.0876 189.433 88.5921C189.009 90.1605 190.789 91.2001 192.299 91.3629C194.637 91.5602 196.987 91.5769 199.328 91.4126C201.886 91.286 204.752 91.4126 207.129 90.4634C209.706 89.4373 211.948 87.7107 212.192 84.0314C212.372 81.2742 212.567 78.1961 212.463 75.4208Z" fill="#FAFAFA"/>
<path d="M14.2608 54.1729C13.7285 54.1933 13.2059 54.3209 12.724 54.548C12.2478 54.7744 11.8278 55.1041 11.4948 55.5129C11.1617 55.9218 10.9239 56.3997 10.7985 56.912C10.701 57.3692 10.6646 57.8373 10.69 58.3041C10.69 62.2953 10.7126 68.0628 10.7307 75.1863C10.7307 78.7526 10.7307 82.6579 10.7307 86.8479C10.7307 87.8966 10.7307 88.9588 10.7307 90.0436C10.7307 90.5815 10.7307 91.1374 10.7307 91.6753C10.7578 92.2161 10.9127 92.7428 11.1827 93.2121C11.4512 93.6952 11.8305 94.1076 12.2894 94.4156C12.7482 94.7237 13.2736 94.9184 13.8224 94.9839C14.1049 95.0091 14.3886 95.0182 14.6722 95.0111H17.3118H47.971C48.6307 95.0122 49.2773 94.8275 49.8369 94.4782C50.3965 94.1289 50.8463 93.629 51.135 93.0358C51.413 92.442 51.5343 91.7869 51.4876 91.1329V81.3019C51.4876 76.1717 51.4876 71.2268 51.4876 66.5125C51.4876 64.1575 51.4876 61.8569 51.4876 59.624V57.9651C51.5058 57.4314 51.4103 56.8998 51.2073 56.4057C51.0005 55.9276 50.6907 55.5011 50.3001 55.1565C49.9094 54.812 49.4475 54.5579 48.9473 54.4124C48.4514 54.2871 47.9392 54.2383 47.4286 54.2678H42.9402L37.3354 54.2407H20.4487H15.8609H14.6676C14.3964 54.2407 14.2608 54.2407 14.2608 54.2407H14.6676H15.8609H20.4487L37.3354 54.2045H42.9267H47.4467C47.9753 54.1719 48.5058 54.2207 49.0196 54.3491C49.5468 54.5039 50.0337 54.7722 50.446 55.1354C50.8583 55.4985 51.1861 55.9475 51.4062 56.4509C51.6201 56.9708 51.7217 57.5299 51.7045 58.0917C51.7045 58.6386 51.7045 59.1946 51.7045 59.7505C51.7045 61.9834 51.7045 64.2705 51.7045 66.639C51.7045 71.3534 51.7045 76.2983 51.7045 81.4285C51.7045 83.9913 51.7045 86.6039 51.7045 89.2526V91.2459C51.7493 91.9343 51.6203 92.6228 51.3294 93.2483C51.023 93.8803 50.5454 94.4137 49.9509 94.7876C49.3564 95.1616 48.6688 95.3612 47.9665 95.3636H17.3073H14.6857C14.3931 95.3711 14.1002 95.3605 13.8088 95.332C13.2246 95.2594 12.6656 95.0504 12.1771 94.7218C11.6982 94.3943 11.3008 93.9614 11.0155 93.4562C10.7395 92.955 10.5847 92.3962 10.5635 91.8245C10.5635 91.264 10.5635 90.7261 10.5635 90.1837C10.5635 89.0989 10.5635 88.0367 10.5635 86.9881C10.5635 82.798 10.5635 78.8927 10.5635 75.3265C10.5635 68.2029 10.5906 62.4354 10.5996 58.4443C10.5743 57.9708 10.6154 57.4961 10.7217 57.034C10.851 56.5124 11.0962 56.0267 11.4389 55.6127C11.7816 55.1988 12.2131 54.8673 12.7014 54.6429C13.0659 54.4754 13.4552 54.3686 13.854 54.3265C14.1207 54.1683 14.2608 54.1729 14.2608 54.1729Z" fill="#EBEBEB"/>
<path d="M48.7441 75.4208C48.6853 73.8298 48.6446 71.3528 48.6175 69.468C48.5904 67.5831 46.0501 66.8464 45.1371 68.4871C45.0979 68.5557 45.0632 68.6266 45.0331 68.6996C44.5811 69.8703 44.6806 71.172 44.6354 72.4241C44.5009 76.2626 42.901 79.9039 40.1645 82.5991C37.428 85.2944 33.763 86.8389 29.9228 86.9152C28.8199 86.9378 27.6628 86.8429 26.6774 87.4169C26.2141 87.6676 25.867 88.0893 25.7101 88.5921C25.2898 90.1605 27.0661 91.2001 28.5803 91.3629C30.9184 91.5603 33.2683 91.5769 35.6089 91.4126C38.1673 91.286 41.0329 91.4126 43.4059 90.4634C45.9869 89.4373 48.2288 87.7107 48.4729 84.0314C48.6537 81.2742 48.848 78.1961 48.7441 75.4208Z" fill="#FAFAFA"/>
<path d="M47.9756 54.2401C48.5078 54.2197 49.0305 54.0921 49.5124 53.8649C49.9856 53.6413 50.4037 53.3159 50.7365 52.9119C51.0694 52.508 51.3089 52.0354 51.4379 51.5281C51.5351 51.0709 51.5716 50.6028 51.5464 50.1359C51.5464 46.1403 51.5238 40.3773 51.5057 33.2492C51.5057 29.6875 51.5057 25.7822 51.5057 21.5921C51.5057 20.5435 51.5057 19.4783 51.5057 18.3965C51.5057 17.8541 51.5057 17.3027 51.5057 16.7648C51.4759 16.223 51.3212 15.6955 51.0537 15.2235C50.781 14.7396 50.4005 14.3251 49.9417 14.0121C49.4804 13.7019 48.9523 13.5052 48.4004 13.4381C48.1181 13.4106 47.8342 13.4015 47.5507 13.4109H44.9245H14.2654C13.6052 13.4102 12.9583 13.5956 12.3986 13.9457C11.839 14.2959 11.3894 14.7967 11.1014 15.3907C10.8234 15.9845 10.7021 16.6396 10.7488 17.2936V27.1201C10.7488 32.2458 10.7488 37.1952 10.7488 41.9095C10.7488 44.266 10.7488 46.5606 10.7488 48.7935V50.4569C10.7314 50.9906 10.8269 51.522 11.0291 52.0163C11.2359 52.4944 11.5457 52.9209 11.9363 53.2655C12.327 53.61 12.7889 53.8641 13.2891 54.0096C13.7836 54.1337 14.2943 54.1809 14.8033 54.1497H19.3233H24.9145L41.8012 54.1859H46.389L41.8012 54.2085L24.9145 54.2446H19.3233H14.8033C14.2759 54.2754 13.7469 54.2251 13.2348 54.0955C12.7161 53.9538 12.2341 53.7015 11.8221 53.3558C11.4102 53.0101 11.0779 52.5794 10.8483 52.0931C10.634 51.575 10.5323 51.0173 10.55 50.4569C10.55 49.9054 10.55 49.354 10.55 48.7935C10.55 46.5606 10.55 44.266 10.55 41.9095C10.55 37.1952 10.55 32.2458 10.55 27.1201C10.55 24.5527 10.55 21.9447 10.55 19.296V17.3027C10.5051 16.6129 10.6341 15.9228 10.9251 15.2958C11.2316 14.6643 11.7094 14.1315 12.304 13.7583C12.8986 13.3851 13.586 13.1865 14.288 13.1849H44.9472H47.5733C47.8658 13.1761 48.1587 13.1851 48.4502 13.2121C49.0313 13.2823 49.5874 13.4894 50.073 13.8162C50.5586 14.1431 50.9597 14.5804 51.2435 15.0924C51.5194 15.5936 51.6742 16.1524 51.6955 16.7241C51.6955 17.2801 51.6955 17.8179 51.6955 18.3649C51.6955 19.4451 51.6955 20.5119 51.6955 21.5605C51.6955 25.7505 51.6955 29.6558 51.6955 33.2176C51.6955 40.3456 51.6684 46.1086 51.6594 50.1043C51.6826 50.5827 51.6384 51.062 51.5283 51.5281C51.4252 51.9323 51.254 52.316 51.022 52.6626C50.7215 53.1041 50.3277 53.4742 49.8685 53.7468C49.4092 54.0193 48.8957 54.1878 48.3643 54.2401C48.1157 54.2401 47.9756 54.2401 47.9756 54.2401Z" fill="#EBEBEB"/>
<path d="M88.7412 54.2401C89.2734 54.2193 89.796 54.0917 90.278 53.8649C90.7521 53.6418 91.171 53.3166 91.5047 52.9126C91.8384 52.5086 92.0785 52.0358 92.208 51.5281C92.3059 51.0709 92.3409 50.6025 92.312 50.1359C92.312 46.1402 92.312 40.3772 92.2758 33.2492C92.2758 29.6874 92.2758 25.7821 92.2758 21.5921C92.2758 20.5435 92.2758 19.4783 92.2758 18.3965C92.2758 17.8541 92.2758 17.3026 92.2758 16.7647C92.2461 16.223 92.0914 15.6955 91.8238 15.2234C91.5489 14.7398 91.167 14.3254 90.7074 14.0121C90.2457 13.7026 89.7177 13.506 89.1661 13.438C88.8837 13.4106 88.5998 13.4015 88.3163 13.4109H85.6902H55.031C54.3708 13.4097 53.7235 13.5948 53.1638 13.945C52.6041 14.2952 52.1546 14.7963 51.867 15.3907C51.589 15.9845 51.4677 16.6396 51.5145 17.2936V27.1201C51.5145 32.2457 51.5145 37.1952 51.5145 41.9095C51.5145 44.2659 51.5145 46.5606 51.5145 48.7935V50.4568C51.4948 50.9907 51.5904 51.5226 51.7947 52.0162C52.0015 52.4943 52.3113 52.9209 52.7019 53.2654C53.0926 53.61 53.5545 53.8641 54.0547 54.0095C54.5493 54.1336 55.06 54.1809 55.5689 54.1497H60.0889H65.6847L82.5669 54.1858H87.1592L82.5669 54.2084L65.6847 54.2446H60.0889H55.5689C55.0415 54.2753 54.5126 54.225 54.0005 54.0954C53.4722 53.943 52.9842 53.6754 52.5716 53.312C52.1589 52.9487 51.8319 52.4984 51.6139 51.9936C51.3996 51.4755 51.2979 50.9178 51.3156 50.3574C51.3156 49.806 51.3156 49.2545 51.3156 48.694C51.3156 46.4612 51.3156 44.1665 51.3156 41.8101C51.3156 37.0957 51.3156 32.1463 51.3156 27.0206C51.3156 24.4533 51.3156 21.8452 51.3156 19.1965V17.3026C51.2708 16.6128 51.3998 15.9228 51.6907 15.2957C51.9973 14.6642 52.475 14.1315 53.0696 13.7583C53.6642 13.3851 54.3516 13.1864 55.0536 13.1849H85.7128H88.3389C88.6315 13.1761 88.9243 13.1851 89.2158 13.212C89.7969 13.2823 90.3531 13.4893 90.8386 13.8162C91.3242 14.1431 91.7253 14.5804 92.0091 15.0923C92.2851 15.5935 92.4399 16.1523 92.4611 16.7241C92.4611 17.28 92.4611 17.8179 92.4611 18.3648C92.4611 19.4451 92.4611 20.5118 92.4611 21.5605C92.4611 25.7505 92.4611 29.6558 92.4611 33.2175C92.4611 40.3456 92.434 46.1086 92.425 50.1043C92.4454 50.5776 92.4043 51.0517 92.3029 51.5145C92.1999 51.9187 92.0287 52.3024 91.7967 52.649C91.4991 53.0858 91.1101 53.4527 90.6566 53.7243C90.2032 53.9959 89.6961 54.1657 89.1706 54.222C88.8813 54.2401 88.7412 54.2401 88.7412 54.2401Z" fill="#EBEBEB"/>
<path d="M88.2259 34.8043C88.1671 33.2133 88.1264 30.7363 88.0993 28.856C88.0722 26.9757 85.5275 26.2344 84.6189 27.8706C84.5806 27.9412 84.5459 28.0136 84.515 28.0876C84.063 29.2538 84.1624 30.5555 84.1172 31.8076C83.9817 35.6462 82.3816 39.2873 79.6454 41.9831C76.9093 44.6789 73.2449 46.2247 69.4046 46.3032C68.3017 46.3032 67.1446 46.2264 66.1592 46.8049C65.6935 47.0569 65.3459 47.4825 65.192 47.9892C64.7671 49.5576 66.548 50.5972 68.0622 50.7599C70.4 50.9611 72.7501 50.9792 75.0908 50.8142C77.6491 50.6831 80.5148 50.8142 82.8878 49.8604C85.4687 48.8344 87.7106 47.1078 87.9547 43.4285C88.14 40.6487 88.3298 37.5706 88.2259 34.8043Z" fill="#FAFAFA"/>
<path d="M170.797 54.2401C171.33 54.2189 171.852 54.0914 172.334 53.8649C172.916 53.5859 173.411 53.1548 173.767 52.6174C173.993 52.2764 174.158 51.8986 174.255 51.5009C174.355 51.044 174.391 50.5756 174.364 50.1088C174.364 46.1131 174.341 40.3501 174.328 33.2221C174.328 29.6603 174.328 25.755 174.328 21.565C174.328 20.5163 174.328 19.4511 174.328 18.3693C174.328 17.8269 174.328 17.2755 174.328 16.7376C174.298 16.1959 174.143 15.6683 173.876 15.1963C173.599 14.723 173.219 14.3182 172.764 14.0121C172.302 13.7026 171.774 13.506 171.222 13.438C170.94 13.4107 170.656 13.4017 170.373 13.4109H167.746H137.083C136.423 13.4107 135.776 13.5963 135.216 13.9464C134.657 14.2965 134.207 14.797 133.919 15.3907C133.644 15.9855 133.525 16.6401 133.571 17.2936V19.2869C133.571 21.9356 133.571 24.5437 133.571 27.111C133.571 32.2367 133.571 37.1861 133.571 41.9005C133.571 44.2569 133.571 46.5515 133.571 48.7844C133.571 49.3449 133.571 49.8963 133.571 50.4478C133.555 50.9818 133.652 51.5132 133.855 52.0072C134.061 52.486 134.371 52.9131 134.761 53.2578C135.152 53.6025 135.615 53.8562 136.115 54.0005C136.612 54.1244 137.124 54.1717 137.634 54.1406H142.154H147.75L164.632 54.1768H169.224L164.632 54.1994L147.75 54.2355H142.154H137.634C137.105 54.2661 136.575 54.2158 136.061 54.0864C135.534 53.9331 135.047 53.6652 134.635 53.3018C134.223 52.9385 133.897 52.4887 133.679 51.9846C133.461 51.4674 133.358 50.9092 133.376 50.3483V48.8161C133.376 46.5832 133.376 44.2885 133.376 41.9321C133.376 37.2177 133.376 32.2683 133.376 27.1427V17.3026C133.329 16.6127 133.458 15.9219 133.752 15.2957C134.057 14.6646 134.534 14.132 135.128 13.7588C135.722 13.3856 136.409 13.1867 137.11 13.1849H167.774H170.4C170.692 13.1761 170.985 13.1851 171.277 13.212C171.858 13.2823 172.414 13.4893 172.899 13.8162C173.385 14.1431 173.786 14.5804 174.07 15.0923C174.344 15.5943 174.498 16.1527 174.522 16.7241C174.522 17.28 174.522 17.8179 174.522 18.3648C174.522 19.4466 174.522 20.5118 174.522 21.5605C174.522 25.7505 174.522 29.6558 174.522 33.2175C174.522 40.3456 174.49 46.1086 174.481 50.1043C174.505 50.5775 174.466 51.0518 174.364 51.5145C174.259 51.919 174.086 52.3026 173.853 52.649C173.485 53.1924 172.975 53.6252 172.379 53.9011C172.017 54.0715 171.629 54.18 171.231 54.222C170.933 54.2401 170.797 54.2401 170.797 54.2401Z" fill="#EBEBEB"/>
<path d="M170.282 34.8043C170.223 33.2133 170.178 30.7363 170.151 28.856C170.124 26.9757 167.584 26.2344 166.675 27.8706C166.635 27.9402 166.6 28.0127 166.571 28.0876C166.119 29.2538 166.219 30.5555 166.173 31.8076C166.036 35.6463 164.434 39.2867 161.698 41.9822C158.961 44.6776 155.297 46.2237 151.456 46.3032C150.358 46.3032 149.223 46.2264 148.215 46.8049C147.749 47.0558 147.401 47.4818 147.248 47.9892C146.823 49.5576 148.604 50.5972 150.118 50.7599C152.455 50.9611 154.803 50.9792 157.142 50.8142C159.705 50.6831 162.566 50.8142 164.944 49.8604C167.525 48.8344 169.767 47.1078 170.006 43.4285C170.243 40.5602 170.335 37.6818 170.282 34.8043Z" fill="#FAFAFA"/>
<path d="M129.724 54.2401C130.256 54.2193 130.779 54.0917 131.261 53.8649C131.843 53.5849 132.339 53.1541 132.698 52.6174C132.921 52.2744 133.086 51.8972 133.187 51.5009C133.284 51.0438 133.319 50.5754 133.291 50.1088C133.291 46.1131 133.291 40.3501 133.254 33.2221C133.254 29.6603 133.254 25.755 133.254 21.565C133.254 20.5163 133.254 19.4496 133.254 18.3693C133.254 17.8269 133.254 17.2755 133.254 16.7376C133.225 16.1959 133.07 15.6683 132.802 15.1963C132.524 14.7225 132.142 14.3177 131.686 14.0121C131.224 13.7026 130.696 13.506 130.145 13.438C129.862 13.4106 129.578 13.4016 129.295 13.4109H126.669H96.005C95.3448 13.4097 94.6975 13.5948 94.1378 13.945C93.5781 14.2952 93.1286 14.7963 92.841 15.3907C92.563 15.9845 92.4417 16.6396 92.4885 17.2936V27.1201C92.4885 32.2457 92.4885 37.1952 92.4885 41.9095C92.4885 44.2659 92.4885 46.5606 92.4885 48.7935V50.4568C92.4688 50.9907 92.5644 51.5226 92.7687 52.0162C92.9755 52.4943 93.2853 52.9209 93.676 53.2654C94.0666 53.61 94.5285 53.8641 95.0287 54.0095C95.5233 54.1336 96.034 54.1809 96.5429 54.1497H101.063H106.659L123.541 54.1858H128.133L123.541 54.2084L106.659 54.2446H101.063H96.5429C96.0155 54.2753 95.4866 54.225 94.9745 54.0954C94.4462 53.943 93.9582 53.6754 93.5456 53.312C93.1329 52.9487 92.8059 52.4984 92.5879 51.9936C92.3744 51.4752 92.2713 50.9179 92.2851 50.3574V48.8161C92.2851 46.5832 92.2851 44.2885 92.2851 41.9321C92.2851 37.2177 92.2851 32.2683 92.2851 27.1427C92.2851 24.5753 92.2851 21.9673 92.2851 19.3185V17.3026C92.2402 16.6128 92.3692 15.9228 92.6602 15.2957C92.9664 14.6649 93.4435 14.1327 94.0372 13.7595C94.6309 13.3863 95.3174 13.1873 96.0186 13.1849H126.682H129.308C129.601 13.1761 129.894 13.1851 130.185 13.212C130.766 13.2823 131.323 13.4893 131.808 13.8162C132.294 14.1431 132.695 14.5804 132.979 15.0923C133.255 15.5935 133.409 16.1523 133.431 16.7241C133.431 17.28 133.431 17.8179 133.431 18.3648C133.431 19.4451 133.431 20.5118 133.431 21.5605C133.431 25.7505 133.431 29.6558 133.431 33.2175C133.431 40.3456 133.403 46.1086 133.394 50.1043C133.415 50.5776 133.374 51.0517 133.272 51.5145C133.167 51.918 132.996 52.3014 132.766 52.649C132.469 53.0858 132.08 53.4527 131.626 53.7243C131.173 53.9959 130.666 54.1657 130.14 54.222C129.855 54.2401 129.724 54.2401 129.724 54.2401Z" fill="#EBEBEB"/>
<path d="M95.2321 32.9962C95.2908 34.5873 95.336 37.0642 95.3631 38.9491C95.3902 40.8339 97.9305 41.5707 98.8435 39.9344C98.8804 39.8639 98.9136 39.7915 98.943 39.7175C99.395 38.5513 99.2955 37.2496 99.3407 35.9975C99.4785 32.1588 101.08 28.5183 103.817 25.8229C106.553 23.1274 110.218 21.5814 114.058 21.5019C115.161 21.5019 116.291 21.5742 117.299 21.0002C117.53 20.8768 117.735 20.7085 117.901 20.5052C118.067 20.3019 118.191 20.0676 118.266 19.8159C118.691 18.2475 116.91 17.2079 115.4 17.0452C113.062 16.844 110.712 16.8259 108.372 16.9909C105.813 17.122 102.948 16.9909 100.57 17.9446C97.9938 18.9707 95.7519 20.6973 95.5078 24.3766C95.327 27.1474 95.1326 30.2255 95.2321 32.9962Z" fill="#FAFAFA"/>
<path d="M13.5601 32.9964C13.6188 34.5875 13.6595 37.0644 13.6866 38.9493C13.7138 40.8341 16.254 41.5709 17.167 39.9346C17.2039 39.8641 17.2371 39.7916 17.2665 39.7177C17.7185 38.5515 17.619 37.2497 17.6642 35.9977C17.8017 32.1628 19.4 28.5256 22.1318 25.8307C24.8637 23.1358 28.5224 21.5873 32.3588 21.5021C33.4616 21.5021 34.5916 21.5744 35.5996 21.0003C35.8313 20.8769 36.0361 20.7087 36.2022 20.5054C36.3682 20.3021 36.4922 20.0678 36.5669 19.8161C36.9918 18.2477 35.2109 17.2081 33.7012 17.0453C31.3618 16.844 29.0103 16.8258 26.6681 16.9911C24.1098 17.1222 21.2441 16.9911 18.8666 17.9448C16.2902 18.9709 14.0482 20.6975 13.8042 24.3768C13.6279 27.1475 13.4335 30.2257 13.5601 32.9964Z" fill="#FAFAFA"/>
<path d="M211.739 54.2401C212.272 54.2197 212.794 54.0921 213.276 53.865C213.753 53.6386 214.172 53.309 214.506 52.9001C214.839 52.4912 215.076 52.0133 215.202 51.501C215.299 51.0438 215.336 50.5757 215.31 50.1089C215.31 46.1132 215.288 40.3502 215.27 33.2221C215.27 29.6604 215.27 25.7551 215.27 21.5651C215.27 20.5164 215.27 19.4512 215.27 18.3694C215.27 17.827 215.27 17.2756 215.27 16.7377C215.242 16.1956 215.087 15.6676 214.818 15.1964C214.542 14.7224 214.161 14.3175 213.706 14.0121C213.244 13.702 212.716 13.5053 212.164 13.4381C211.882 13.4106 211.598 13.4016 211.315 13.411H208.688H178.029C177.369 13.4108 176.723 13.5964 176.163 13.9465C175.603 14.2966 175.154 14.7971 174.865 15.3907C174.587 15.9846 174.466 16.6397 174.513 17.2937V27.1201C174.513 32.2458 174.513 37.1952 174.513 41.9096C174.513 44.266 174.513 46.5607 174.513 48.7935V50.4569C174.495 50.9906 174.591 51.522 174.793 52.0163C175 52.4944 175.31 52.921 175.7 53.2655C176.091 53.6101 176.553 53.8642 177.053 54.0096C177.549 54.1337 178.061 54.181 178.572 54.1497H183.092H188.683L205.57 54.1859H210.157L205.57 54.2085L188.683 54.2447H183.092H178.572C178.043 54.2757 177.512 54.2254 176.999 54.0955C176.471 53.9422 175.983 53.6744 175.571 53.3111C175.158 52.9478 174.831 52.498 174.612 51.9937C174.398 51.4756 174.296 50.9179 174.314 50.3575C174.314 49.806 174.314 49.2546 174.314 48.6941C174.314 46.4612 174.314 44.1666 174.314 41.8101C174.314 37.0958 174.314 32.1464 174.314 27.0207C174.314 24.4533 174.314 21.8453 174.314 19.1966V17.3027C174.269 16.6129 174.398 15.9229 174.689 15.2958C174.996 14.6643 175.473 14.1316 176.068 13.7584C176.662 13.3852 177.35 13.1865 178.052 13.185H208.711H211.337C211.63 13.176 211.923 13.1851 212.214 13.2121C212.797 13.2887 213.355 13.4974 213.846 13.8223C214.325 14.1514 214.722 14.5859 215.007 15.0924C215.283 15.5936 215.438 16.1524 215.459 16.7241C215.459 17.2801 215.459 17.818 215.459 18.3649C215.459 19.4467 215.459 20.5119 215.459 21.5605C215.459 25.7506 215.459 29.6559 215.459 33.2176C215.459 40.3457 215.432 46.1087 215.423 50.1043C215.448 50.5778 215.407 51.0524 215.301 51.5146C215.2 51.9195 215.029 52.3035 214.795 52.6491C214.497 53.0859 214.108 53.4528 213.655 53.7244C213.201 53.996 212.694 54.1658 212.169 54.2221C211.88 54.2401 211.739 54.2401 211.739 54.2401Z" fill="#EBEBEB"/>
<path d="M177.257 32.9963C177.315 34.5873 177.356 37.0643 177.383 38.9491C177.41 40.8339 179.951 41.5707 180.864 39.9345C180.902 39.8639 180.937 39.7915 180.968 39.7175C181.42 38.5513 181.32 37.2496 181.365 35.9975C181.501 32.1589 183.101 28.5178 185.837 25.822C188.573 23.1262 192.238 21.5804 196.078 21.5019C197.181 21.5019 198.315 21.5742 199.323 21.0002C199.789 20.7482 200.137 20.3226 200.291 19.8159C200.711 18.2475 198.935 17.2079 197.42 17.0452C195.082 16.844 192.732 16.8259 190.392 16.9909C187.833 17.122 184.968 16.9909 182.595 17.9447C180.014 18.9707 177.772 20.6973 177.528 24.3766C177.347 27.1474 177.153 30.2255 177.257 32.9963Z" fill="#FAFAFA"/>
<path d="M47.9756 136.174C48.5082 136.157 49.0315 136.029 49.5124 135.799C49.9886 135.573 50.4085 135.243 50.7416 134.834C51.0746 134.425 51.3125 133.947 51.4379 133.435C51.5354 132.978 51.5718 132.51 51.5464 132.043C51.5464 128.052 51.5238 122.284 51.5057 115.161C51.5057 111.594 51.5057 107.694 51.5057 103.499C51.5057 102.454 51.5057 101.388 51.5057 100.304C51.5057 99.7657 51.5057 99.2142 51.5057 98.6718C51.4764 98.1314 51.3216 97.6052 51.0537 97.135C50.7852 96.652 50.4059 96.2395 49.947 95.9315C49.4882 95.6235 48.9628 95.4287 48.414 95.3632C48.1315 95.338 47.8478 95.3289 47.5642 95.3361H44.9246H14.2654C13.6056 95.3344 12.9587 95.5188 12.3991 95.8682C11.8394 96.2176 11.3896 96.7178 11.1014 97.3113C10.8238 97.9052 10.7025 98.5602 10.7488 99.2142V109.032C10.7488 114.162 10.7488 119.107 10.7488 123.821C10.7488 126.181 10.7488 128.477 10.7488 130.71V132.373C10.731 132.905 10.8265 133.435 11.0291 133.928C11.2359 134.406 11.5457 134.832 11.9363 135.177C12.327 135.522 12.7889 135.776 13.2891 135.921C13.7831 136.049 14.2941 136.098 14.8033 136.066H19.3233H24.9145L41.8012 136.102L46.389 136.125H47.5823H47.9891C47.9891 136.125 47.8535 136.125 47.5823 136.125H46.389L41.8012 136.147L24.9145 136.188H14.7988C14.2716 136.22 13.7427 136.171 13.2303 136.043C12.7111 135.898 12.2293 135.642 11.8181 135.294C11.407 134.945 11.0761 134.511 10.8483 134.023C10.6348 133.504 10.5331 132.947 10.55 132.387C10.55 131.835 10.55 131.279 10.55 130.723C10.55 128.49 10.55 126.194 10.55 123.835C10.55 119.12 10.55 114.175 10.55 109.045C10.55 106.482 10.55 103.87 10.55 101.221V99.2278C10.5051 98.5394 10.6341 97.8509 10.9251 97.2254C11.2317 96.5939 11.7094 96.0612 12.304 95.688C12.8986 95.3148 13.586 95.1161 14.288 95.1146H44.9472H47.5733C47.8659 95.1072 48.1588 95.1178 48.4502 95.1462C49.0344 95.2188 49.5934 95.4278 50.0819 95.7564C50.5609 96.0856 50.9582 96.5201 51.2435 97.0265C51.5205 97.5257 51.6754 98.0833 51.6955 98.6537C51.6955 99.2142 51.6955 99.7521 51.6955 100.294C51.6955 101.379 51.6955 102.446 51.6955 103.49C51.6955 107.685 51.6955 111.585 51.6955 115.152C51.6955 122.275 51.6684 128.043 51.6594 132.034C51.6845 132.509 51.6434 132.985 51.5373 133.449C51.4334 133.853 51.2622 134.236 51.0311 134.583C50.7346 135.021 50.3457 135.388 49.892 135.659C49.4383 135.93 48.9307 136.098 48.405 136.152C48.1157 136.179 47.9756 136.174 47.9756 136.174Z" fill="#EBEBEB"/>
<path d="M88.7413 136.175C89.2739 136.157 89.7971 136.029 90.2781 135.799C90.7544 135.573 91.1743 135.243 91.5073 134.834C91.8404 134.426 92.0783 133.948 92.2036 133.435C92.3017 132.978 92.3367 132.51 92.3076 132.043C92.3076 128.052 92.3076 122.285 92.2714 115.161C92.2714 111.595 92.2714 107.694 92.2714 103.499C92.2714 102.454 92.2714 101.389 92.2714 100.304C92.2714 99.7659 92.2714 99.2145 92.2714 98.6721C92.2421 98.1317 92.0874 97.6055 91.8194 97.1353C91.5509 96.6522 91.1717 96.2397 90.7128 95.9317C90.2539 95.6237 89.7285 95.429 89.1797 95.3634C88.8972 95.3382 88.6135 95.3292 88.33 95.3363H85.7039H55.0447C54.3848 95.3341 53.7377 95.5183 53.178 95.8678C52.6182 96.2173 52.1685 96.7177 51.8807 97.3116C51.6031 97.9055 51.4818 98.5605 51.5281 99.2145V109.032C51.5281 114.162 51.5281 119.107 51.5281 123.821C51.5281 126.181 51.5281 128.477 51.5281 130.71V132.373C51.508 132.906 51.6036 133.436 51.8084 133.928C52.0152 134.406 52.325 134.833 52.7156 135.177C53.1063 135.522 53.5682 135.776 54.0684 135.921C54.5623 136.049 55.0734 136.098 55.5826 136.066H60.1026H65.6984L82.5805 136.102L87.1729 136.125H88.3661H88.7729C88.7729 136.125 88.6373 136.125 88.3661 136.125H87.1729L82.5805 136.147L65.6984 136.188H55.5645C55.0374 136.22 54.5084 136.172 53.9961 136.043C53.4682 135.89 52.9806 135.622 52.5681 135.259C52.1556 134.896 51.8283 134.446 51.6095 133.942C51.396 133.423 51.2943 132.866 51.3112 132.305C51.3112 131.754 51.3112 131.198 51.3112 130.642C51.3112 128.409 51.3112 126.113 51.3112 123.754C51.3112 119.039 51.3112 114.094 51.3112 108.964C51.3112 106.401 51.3112 103.789 51.3112 101.14V99.1467C51.2664 98.4583 51.3954 97.7698 51.6863 97.1443C51.9929 96.5128 52.4707 95.9801 53.0652 95.6069C53.6598 95.2337 54.3472 95.035 55.0492 95.0335H85.7084H88.3345C88.6272 95.0262 88.92 95.0368 89.2114 95.0651C89.7956 95.1377 90.3546 95.3467 90.8431 95.6753C91.3221 96.0045 91.7195 96.439 92.0047 96.9454C92.2817 97.4446 92.4366 98.0022 92.4567 98.5726C92.4567 99.1331 92.4567 99.671 92.4567 100.213C92.4567 101.298 92.4567 102.365 92.4567 103.409C92.4567 107.604 92.4567 111.504 92.4567 115.071C92.4567 122.194 92.4296 127.962 92.4206 131.953C92.4412 132.428 92.4001 132.903 92.2985 133.368C92.1946 133.771 92.0235 134.155 91.7923 134.502C91.4958 134.94 91.107 135.307 90.6533 135.578C90.1995 135.849 89.6919 136.017 89.1662 136.071C88.8814 136.179 88.7413 136.175 88.7413 136.175Z" fill="#EBEBEB"/>
<path d="M88.2259 116.725C88.1671 115.133 88.1264 112.657 88.0993 110.772C88.0722 108.887 85.5275 108.15 84.6189 109.791C84.5798 109.859 84.545 109.93 84.515 110.003C84.063 111.174 84.1624 112.471 84.1172 113.728C83.9827 117.566 82.3828 121.208 79.6463 123.903C76.9099 126.598 73.2448 128.143 69.4046 128.219C68.3017 128.241 67.1446 128.147 66.1592 128.721C65.6932 128.974 65.3458 129.401 65.192 129.909C64.7671 131.473 66.548 132.517 68.0622 132.676C70.4 132.877 72.7501 132.895 75.0908 132.73C77.6491 132.603 80.5148 132.73 82.8878 131.776C85.4687 130.75 87.7106 129.028 87.9547 125.344C88.14 122.578 88.3298 119.5 88.2259 116.725Z" fill="#FAFAFA"/>
<path d="M170.797 136.175C171.33 136.156 171.853 136.029 172.334 135.8C172.915 135.521 173.411 135.089 173.767 134.552C173.994 134.211 174.159 133.833 174.255 133.436C174.355 132.979 174.391 132.51 174.364 132.043C174.364 128.052 174.341 122.285 174.327 115.161C174.327 111.595 174.327 107.694 174.327 103.5C174.327 102.454 174.327 101.389 174.327 100.304C174.327 99.7661 174.327 99.2147 174.327 98.6723C174.298 98.1318 174.143 97.6057 173.875 97.1355C173.607 96.6524 173.228 96.2399 172.769 95.9319C172.31 95.6239 171.784 95.4291 171.236 95.3636C170.953 95.3386 170.669 95.3295 170.386 95.3365H167.76H137.096C136.436 95.3354 135.79 95.52 135.23 95.8694C134.671 96.2187 134.221 96.7186 133.932 97.3117C133.658 97.9067 133.538 98.5612 133.584 99.2147V101.208C133.584 103.857 133.584 106.469 133.584 109.032C133.584 114.162 133.584 119.107 133.584 123.822C133.584 126.181 133.584 128.477 133.584 130.71C133.584 131.266 133.584 131.822 133.584 132.373C133.568 132.906 133.665 133.436 133.869 133.928C134.075 134.407 134.384 134.834 134.775 135.179C135.166 135.524 135.628 135.777 136.129 135.922C136.624 136.049 137.137 136.098 137.648 136.066H142.168H147.763L164.646 136.102L169.238 136.125L164.646 136.148L147.763 136.188H137.62C137.092 136.22 136.561 136.172 136.048 136.044C135.521 135.889 135.034 135.621 134.622 135.258C134.211 134.895 133.884 134.445 133.665 133.942C133.448 133.424 133.345 132.866 133.363 132.306V130.642C133.363 128.409 133.363 126.113 133.363 123.754C133.363 119.039 133.363 114.095 133.363 108.964V99.2282C133.316 98.5398 133.445 97.8507 133.738 97.2259C134.044 96.5947 134.521 96.0621 135.114 95.6889C135.708 95.3157 136.395 95.1169 137.096 95.115H167.76H170.386C170.679 95.1077 170.971 95.1183 171.263 95.1467C171.847 95.2199 172.406 95.4289 172.895 95.7569C173.373 96.0873 173.77 96.5215 174.056 97.027C174.331 97.5271 174.485 98.0841 174.508 98.6542C174.508 99.2147 174.508 99.7525 174.508 100.295C174.508 101.38 174.508 102.445 174.508 103.491C174.508 107.685 174.508 111.586 174.508 115.152C174.508 122.276 174.477 128.043 174.468 132.034C174.492 132.509 174.452 132.985 174.35 133.449C174.245 133.853 174.072 134.237 173.839 134.584C173.471 135.127 172.961 135.56 172.366 135.836C172.004 136.005 171.615 136.112 171.218 136.152C170.933 136.179 170.797 136.175 170.797 136.175Z" fill="#EBEBEB"/>
<path d="M170.282 116.725C170.223 115.133 170.178 112.657 170.151 110.772C170.124 108.887 167.584 108.15 166.675 109.791C166.634 109.858 166.599 109.93 166.571 110.003C166.119 111.174 166.219 112.471 166.173 113.728C166.037 117.566 164.435 121.207 161.698 123.902C158.961 126.597 155.297 128.142 151.456 128.219C150.358 128.241 149.223 128.147 148.215 128.721C147.748 128.973 147.401 129.401 147.248 129.909C146.823 131.473 148.604 132.517 150.118 132.676C152.455 132.877 154.803 132.895 157.142 132.73C159.705 132.603 162.566 132.73 164.944 131.776C167.525 130.75 169.767 129.028 170.006 125.344C170.243 122.477 170.335 119.601 170.282 116.725Z" fill="#FAFAFA"/>
<path d="M129.724 136.175C130.257 136.157 130.78 136.029 131.261 135.799C131.843 135.519 132.339 135.089 132.698 134.552C132.922 134.209 133.087 133.832 133.187 133.435C133.285 132.978 133.32 132.51 133.291 132.043C133.291 128.052 133.291 122.285 133.254 115.161C133.254 111.595 133.254 107.694 133.254 103.499C133.254 102.455 133.254 101.389 133.254 100.304C133.254 99.7659 133.254 99.2145 133.254 98.6721C133.225 98.1317 133.07 97.6055 132.802 97.1353C132.534 96.6522 132.155 96.2397 131.696 95.9317C131.237 95.6237 130.711 95.429 130.163 95.3634C129.88 95.3383 129.596 95.3292 129.313 95.3363H126.687H96.0231C95.3632 95.3341 94.7161 95.5183 94.1563 95.8678C93.5966 96.2173 93.1469 96.7177 92.8591 97.3116C92.5815 97.9055 92.4602 98.5605 92.5065 99.2145V109.032C92.5065 114.162 92.5065 119.107 92.5065 123.821C92.5065 126.181 92.5065 128.477 92.5065 130.71V132.373C92.4864 132.906 92.582 133.436 92.7868 133.928C92.9936 134.406 93.3034 134.833 93.694 135.177C94.0847 135.522 94.5466 135.776 95.0468 135.921C95.5407 136.049 96.0518 136.098 96.561 136.066H101.081H106.677L123.559 136.102L128.151 136.125L123.559 136.147L106.677 136.188H96.5429C96.0158 136.22 95.4868 136.172 94.9745 136.043C94.4466 135.89 93.959 135.622 93.5465 135.259C93.134 134.896 92.8067 134.446 92.5879 133.942C92.3753 133.423 92.2722 132.866 92.2851 132.305V130.642C92.2851 128.409 92.2851 126.113 92.2851 123.754C92.2851 119.039 92.2851 114.094 92.2851 108.964C92.2851 106.401 92.2851 103.789 92.2851 101.14V99.1467C92.2402 98.4583 92.3692 97.7698 92.6602 97.1443C92.9664 96.5135 93.4435 95.9812 94.0372 95.6081C94.6309 95.2349 95.3174 95.0358 96.0186 95.0335H126.682H129.308C129.601 95.0262 129.894 95.0368 130.185 95.0651C130.769 95.1383 131.328 95.3473 131.817 95.6753C132.295 96.0057 132.692 96.4399 132.979 96.9454C133.256 97.4446 133.411 98.0022 133.431 98.5726C133.431 99.1331 133.431 99.671 133.431 100.213C133.431 101.298 133.431 102.365 133.431 103.409C133.431 107.604 133.431 111.504 133.431 115.071C133.431 122.194 133.404 127.962 133.394 131.953C133.415 132.428 133.374 132.903 133.272 133.368C133.167 133.771 132.996 134.154 132.766 134.502C132.47 134.94 132.081 135.307 131.627 135.578C131.173 135.849 130.666 136.017 130.14 136.071C129.855 136.179 129.724 136.175 129.724 136.175Z" fill="#EBEBEB"/>
<path d="M95.2321 114.926C95.2908 116.517 95.336 118.994 95.3631 120.879C95.3902 122.763 97.9305 123.5 98.8435 121.859C98.8812 121.791 98.9145 121.72 98.943 121.647C99.395 120.476 99.2955 119.179 99.3407 117.923C99.4774 114.084 101.079 110.443 103.816 107.748C106.553 105.053 110.218 103.509 114.058 103.431C115.161 103.409 116.291 103.504 117.299 102.93C117.531 102.805 117.735 102.636 117.901 102.432C118.067 102.228 118.191 101.993 118.266 101.741C118.691 100.173 116.91 99.1329 115.4 98.9702C113.062 98.7728 110.712 98.7562 108.372 98.9205C105.813 99.0471 102.948 98.9205 100.57 99.8697C97.9938 100.896 95.7519 102.622 95.5078 106.302C95.327 109.072 95.1326 112.151 95.2321 114.926Z" fill="#FAFAFA"/>
<path d="M13.5601 114.926C13.6188 116.517 13.6595 118.994 13.6866 120.879C13.7138 122.764 16.254 123.5 17.167 121.86C17.2048 121.791 17.238 121.72 17.2665 121.647C17.7185 120.476 17.619 119.179 17.6642 117.923C17.8009 114.084 19.4022 110.443 22.1392 107.748C24.8761 105.054 28.5411 103.509 32.3814 103.432C33.4842 103.409 34.6142 103.504 35.6222 102.93C35.854 102.805 36.0589 102.636 36.2249 102.432C36.391 102.228 36.5149 101.993 36.5895 101.741C37.0144 100.173 35.2335 99.133 33.7238 98.9703C31.3767 98.7715 29.0177 98.7549 26.6681 98.9206C24.1098 99.0471 21.2441 98.9206 18.8666 99.8698C16.2902 100.896 14.0482 102.622 13.8042 106.302C13.6279 109.072 13.4335 112.151 13.5601 114.926Z" fill="#FAFAFA"/>
<path d="M211.74 136.175C212.272 136.157 212.796 136.029 213.276 135.799C213.753 135.573 214.173 135.243 214.506 134.835C214.839 134.426 215.077 133.948 215.202 133.435C215.299 132.978 215.336 132.51 215.31 132.043C215.31 128.052 215.288 122.285 215.27 115.161C215.27 111.595 215.27 107.694 215.27 103.5C215.27 102.454 215.27 101.389 215.27 100.304C215.27 99.766 215.27 99.2146 215.27 98.6722C215.243 98.1314 215.088 97.6047 214.818 97.1354C214.549 96.6523 214.17 96.2398 213.711 95.9318C213.252 95.6238 212.727 95.429 212.178 95.3635C211.896 95.3383 211.612 95.3293 211.328 95.3364H208.689H178.029C177.37 95.3353 176.723 95.5199 176.164 95.8693C175.604 96.2186 175.154 96.7185 174.865 97.3116C174.588 97.9056 174.466 98.5606 174.513 99.2146V109.032C174.513 114.162 174.513 119.107 174.513 123.821C174.513 126.181 174.513 128.477 174.513 130.71V132.373C174.495 132.906 174.591 133.436 174.793 133.928C175 134.406 175.31 134.833 175.7 135.177C176.091 135.522 176.553 135.776 177.053 135.921C177.549 136.049 178.061 136.098 178.572 136.066H183.092H188.683L205.57 136.102L210.158 136.125H211.351H211.758C211.758 136.125 211.622 136.125 211.351 136.125H210.158L205.57 136.147L188.683 136.188H178.567C178.039 136.221 177.508 136.172 176.994 136.044C176.467 135.89 175.979 135.622 175.567 135.258C175.155 134.895 174.827 134.446 174.608 133.942C174.394 133.423 174.293 132.866 174.309 132.305C174.309 131.754 174.309 131.198 174.309 130.642C174.309 128.409 174.309 126.113 174.309 123.754C174.309 119.039 174.309 114.094 174.309 108.964C174.309 106.401 174.309 103.789 174.309 101.14V99.1468C174.265 98.4584 174.394 97.7698 174.685 97.1444C174.991 96.5129 175.469 95.9802 176.064 95.6069C176.658 95.2337 177.346 95.0351 178.048 95.0336H208.707H211.333C211.625 95.0261 211.918 95.0367 212.21 95.0652C212.791 95.1355 213.347 95.3425 213.833 95.6694C214.318 95.9962 214.719 96.4336 215.003 96.9455C215.28 97.4446 215.435 98.0022 215.455 98.5727C215.455 99.1332 215.455 99.6711 215.455 100.213C215.455 101.298 215.455 102.363 215.455 103.409C215.455 107.604 215.455 111.504 215.455 115.071C215.455 122.194 215.428 127.962 215.419 131.953C215.444 132.428 215.403 132.904 215.297 133.368C215.166 133.888 214.921 134.373 214.578 134.786C214.235 135.199 213.805 135.53 213.317 135.754C212.953 135.924 212.564 136.031 212.164 136.071C211.88 136.179 211.74 136.175 211.74 136.175Z" fill="#EBEBEB"/>
<path d="M177.257 114.926C177.315 116.517 177.356 118.994 177.383 120.879C177.41 122.764 179.951 123.5 180.864 121.86C180.903 121.791 180.937 121.72 180.968 121.647C181.42 120.476 181.32 119.179 181.365 117.923C181.5 114.084 183.1 110.443 185.836 107.748C188.573 105.052 192.238 103.508 196.078 103.431C197.181 103.409 198.315 103.504 199.323 102.93C199.789 102.676 200.137 102.249 200.291 101.741C200.711 100.173 198.935 99.1329 197.42 98.9702C195.082 98.7728 192.732 98.7562 190.392 98.9205C187.833 99.0471 184.968 98.9205 182.595 99.8697C180.014 100.896 177.772 102.622 177.528 106.302C177.347 109.072 177.153 112.151 177.257 114.926Z" fill="#FAFAFA"/>
<g opacity="0.9">
<path d="M207.626 136.504C207.626 136.572 165.256 136.622 113.004 136.622C60.7533 136.622 18.3738 136.59 18.3738 136.504C18.3738 136.418 60.7352 136.387 113.004 136.387C165.274 136.387 207.626 136.459 207.626 136.504Z" fill="#263238"/>
</g>
<path d="M113 198.161C160.865 198.161 199.666 187.766 199.666 174.942C199.666 162.118 160.865 151.723 113 151.723C65.1354 151.723 26.3335 162.118 26.3335 174.942C26.3335 187.766 65.1354 198.161 113 198.161Z" fill="#455A64"/>
<g opacity="0.9">
<path d="M29.6514 172.623C29.6693 173.239 29.7822 173.849 29.9858 174.431C30.352 175.566 31.3418 177.089 33.1092 178.54C36.6031 181.482 42.7548 184.172 50.5699 186.368C66.2543 190.78 88.773 193.429 113.606 193.438C138.439 193.447 160.971 190.744 176.655 186.35C184.47 184.154 190.622 181.464 194.116 178.517C195.87 177.071 196.873 175.548 197.239 174.413C197.44 173.83 197.553 173.221 197.574 172.605C197.574 172.605 197.574 172.763 197.574 173.057C197.542 173.519 197.449 173.975 197.298 174.413C197.059 175.117 196.713 175.78 196.272 176.379C195.668 177.192 194.968 177.929 194.188 178.576C190.694 181.559 184.538 184.276 176.714 186.495C161.016 190.956 138.479 193.632 113.619 193.641C88.7594 193.65 66.2362 190.956 50.5383 186.495C42.7142 184.276 36.5579 181.559 33.064 178.576C32.2832 177.93 31.5836 177.193 30.9802 176.379C30.5392 175.78 30.1931 175.117 29.9542 174.413C29.8683 174.162 29.8004 173.905 29.7508 173.645C29.7192 173.419 29.683 173.229 29.6785 173.075C29.6514 172.781 29.6514 172.623 29.6514 172.623Z" fill="#263238"/>
</g>
<g opacity="0.3">
<path d="M174.924 167.792C173.347 166.824 171.525 166.526 169.744 166.264C158.243 164.586 146.625 163.83 135.003 164.004L58.3442 178.942C59.3974 182.106 62.7784 183.227 65.7164 183.856C100.578 191.323 136.769 189.758 170.856 179.309C174.047 178.332 177.885 176.33 177.849 172.587C177.826 170.558 176.52 168.763 174.924 167.792Z" fill="black"/>
</g>
<g opacity="0.6">
<path d="M92.7189 195.214C92.7189 195.711 92.5924 196.181 85.8892 195.666C83.0189 195.472 80.1648 195.086 77.3464 194.509C76.4424 194.296 75.6198 194.003 75.6559 193.759C75.7373 193.175 76.5283 193.225 77.5362 193.329C79.7284 193.487 82.68 193.6 85.9932 193.84C92.6331 194.36 92.7144 194.703 92.7189 195.214Z" fill="white"/>
</g>
<g opacity="0.6">
<path d="M95.3721 194.672L95.1642 194.722C95.0116 194.787 94.8814 194.895 94.7891 195.033C94.6969 195.171 94.6466 195.333 94.6444 195.499C94.6339 195.716 94.7022 195.93 94.8367 196.101C94.9712 196.272 95.1629 196.389 95.3766 196.43C95.5931 196.425 95.7994 196.337 95.9538 196.185C96.1082 196.033 96.1992 195.828 96.2083 195.612C96.2297 195.493 96.2238 195.37 96.191 195.254C96.1581 195.137 96.0992 195.029 96.0187 194.939C95.9381 194.848 95.8381 194.777 95.7261 194.731C95.6141 194.685 95.493 194.665 95.3721 194.672Z" fill="white"/>
</g>
<path d="M55.5056 128.788C55.5056 128.788 55.1937 167.1 55.5056 172.705C55.8174 178.309 60.1792 183.919 70.1458 183.607C78.2005 183.354 143.221 179.241 167.868 177.668C170.398 177.506 172.767 176.368 174.475 174.495C176.183 172.622 177.098 170.158 177.026 167.624L175.426 111.965C175.426 111.965 125.9 82.0651 124.657 82.3769C123.414 82.6888 55.5056 128.788 55.5056 128.788Z" fill="#FF725E"/>
<path opacity="0.9" d="M175.72 122.121C175.503 121.479 175.056 120.939 174.466 120.605C173.875 120.271 173.182 120.168 172.519 120.313L170.363 120.793C169.731 120.932 169.169 121.289 168.775 121.803C168.381 122.317 168.182 122.953 168.212 123.599L168.732 137.286C168.764 138.003 168.514 138.704 168.036 139.238C167.558 139.773 166.889 140.099 166.173 140.147L55.3701 147.881V152.568L166.399 145.698C166.764 145.674 167.13 145.723 167.475 145.842C167.821 145.962 168.139 146.149 168.411 146.392C168.683 146.636 168.904 146.931 169.061 147.262C169.218 147.592 169.307 147.95 169.324 148.315L169.591 155.325C169.623 156.043 169.373 156.744 168.895 157.279C168.417 157.815 167.748 158.142 167.032 158.191L55.3882 164.27L55.4334 169.636L167.213 163.448C167.578 163.424 167.944 163.473 168.29 163.592C168.635 163.711 168.954 163.898 169.226 164.142C169.499 164.386 169.72 164.681 169.878 165.011C170.035 165.341 170.125 165.7 170.142 166.065L170.639 177.089C172.562 176.38 174.214 175.085 175.362 173.387C176.511 171.689 177.097 169.673 177.039 167.624L175.72 122.121Z" fill="white"/>
<g opacity="0.9">
<path d="M55.3204 140.481C55.3837 140.481 55.4379 147.496 55.4379 156.143C55.4379 164.79 55.3837 171.81 55.3204 171.81C55.2571 171.81 55.2029 164.795 55.2029 156.143C55.2029 147.492 55.2571 140.481 55.3204 140.481Z" fill="#263238"/>
</g>
<g opacity="0.9">
<path d="M175.896 128.666C175.964 128.666 176.271 137.525 176.588 148.455C176.904 159.384 177.103 168.252 177.04 168.257C176.976 168.261 176.664 159.397 176.352 148.464C176.041 137.53 175.828 128.666 175.896 128.666Z" fill="#263238"/>
</g>
<g opacity="0.2">
<path d="M176.28 171.05C167.728 177.089 143.189 176.773 126.673 177.333C114.153 177.758 101.935 176.217 89.6361 178.526C83.959 179.598 77.5949 181.13 71.8228 181.446C66.3491 181.745 61.2189 179.403 56.4819 176.678C58.2899 180.669 62.602 183.842 70.164 183.607C78.2186 183.354 143.239 179.241 167.886 177.668C169.81 177.546 171.654 176.859 173.188 175.692C174.722 174.525 175.876 172.93 176.506 171.109L176.28 171.05Z" fill="black"/>
</g>
<g opacity="0.2">
<path d="M82.6392 173.984C82.4107 173.776 82.1406 173.619 81.8469 173.523C81.5531 173.427 81.2424 173.394 80.9352 173.428H80.8674C79.656 173.495 79.2537 174.164 79.1407 174.784C79.1004 175.108 79.1403 175.437 79.257 175.742C79.3736 176.047 79.5634 176.318 79.8097 176.533C80.5736 177.243 81.8799 177.437 82.6573 176.723C83.0143 176.355 83.2125 175.862 83.2091 175.349C83.2057 174.837 83.001 174.347 82.6392 173.984Z" fill="black"/>
</g>
<g opacity="0.2">
<path d="M134.411 171.023C134.121 170.763 133.78 170.567 133.409 170.447C133.039 170.327 132.647 170.286 132.26 170.327H132.174C130.646 170.408 130.131 171.231 129.986 172.022C129.937 172.426 129.988 172.837 130.137 173.216C130.285 173.596 130.525 173.932 130.836 174.196C131.803 175.1 133.458 175.299 134.452 174.431C134.675 174.206 134.852 173.938 134.971 173.644C135.09 173.35 135.149 173.036 135.146 172.718C135.142 172.401 135.075 172.088 134.949 171.797C134.823 171.506 134.64 171.243 134.411 171.023Z" fill="black"/>
</g>
<g opacity="0.2">
<path d="M105.144 154.403C104.853 154.145 104.51 153.949 104.139 153.83C103.768 153.711 103.376 153.671 102.988 153.712H102.903C101.37 153.793 100.859 154.616 100.715 155.407C100.665 155.81 100.716 156.22 100.865 156.599C101.013 156.978 101.254 157.314 101.565 157.576C102.532 158.48 104.186 158.684 105.181 157.816C105.404 157.59 105.58 157.323 105.699 157.028C105.819 156.734 105.878 156.419 105.875 156.102C105.871 155.785 105.805 155.471 105.68 155.179C105.554 154.888 105.372 154.624 105.144 154.403Z" fill="black"/>
</g>
<g opacity="0.2">
<path d="M68.2972 140.4C68.0204 140.247 67.7093 140.167 67.3932 140.167C67.077 140.167 66.766 140.247 66.4892 140.4L66.4349 140.431C65.3637 140.951 65.3094 141.873 65.4948 142.637C65.598 143.014 65.7776 143.366 66.0225 143.671C66.2675 143.976 66.5725 144.227 66.9186 144.409C67.9446 144.951 69.2147 144.676 69.5989 143.582C69.9831 142.488 69.3006 140.951 68.2972 140.4Z" fill="black"/>
</g>
<g opacity="0.2">
<path d="M156.419 134.542C156.274 134.411 156.104 134.312 155.918 134.252C155.733 134.192 155.537 134.173 155.343 134.194H155.298C155.042 134.173 154.789 134.249 154.586 134.406C154.384 134.564 154.247 134.791 154.204 135.044C154.18 135.245 154.206 135.45 154.281 135.639C154.355 135.829 154.474 135.997 154.629 136.128C154.868 136.358 155.181 136.496 155.512 136.517C155.842 136.539 156.17 136.443 156.437 136.246C156.549 136.134 156.638 136 156.698 135.853C156.758 135.706 156.788 135.549 156.786 135.39C156.784 135.231 156.751 135.075 156.688 134.929C156.625 134.783 156.533 134.652 156.419 134.542Z" fill="black"/>
</g>
<g opacity="0.2">
<path d="M141.978 171.353C141.943 171.256 141.877 171.173 141.789 171.119C141.701 171.064 141.597 171.042 141.494 171.055H141.476C141.133 171.091 141.024 171.453 140.983 171.792C140.956 172.119 141.023 172.447 141.178 172.736C141.395 173.125 141.765 173.22 141.987 172.84C142.093 172.606 142.147 172.352 142.145 172.096C142.143 171.839 142.086 171.586 141.978 171.353Z" fill="black"/>
</g>
<g opacity="0.2">
<path d="M85.5499 174.336C85.5713 174.223 85.5687 174.106 85.5422 173.994C85.5157 173.882 85.466 173.777 85.3962 173.685C85.3278 173.548 85.2101 173.442 85.0666 173.389C84.9232 173.335 84.7648 173.337 84.6233 173.396C84.5118 173.446 84.4144 173.524 84.3395 173.621C84.2647 173.717 84.2147 173.831 84.1939 173.952C84.1507 174.143 84.1769 174.344 84.268 174.518C84.3591 174.692 84.5091 174.828 84.6911 174.901C84.8798 174.939 85.0756 174.9 85.2363 174.795C85.397 174.689 85.5097 174.524 85.5499 174.336Z" fill="black"/>
</g>
<g opacity="0.2">
<path d="M126.695 174.382C126.718 174.268 126.716 174.15 126.69 174.037C126.663 173.924 126.613 173.818 126.542 173.726V173.704C126.472 173.568 126.354 173.464 126.211 173.411C126.068 173.358 125.91 173.361 125.769 173.419C125.658 173.469 125.562 173.545 125.488 173.642C125.414 173.738 125.364 173.851 125.344 173.97C125.299 174.161 125.323 174.362 125.414 174.537C125.504 174.711 125.654 174.847 125.837 174.92C126.022 174.958 126.214 174.923 126.374 174.823C126.534 174.723 126.649 174.565 126.695 174.382Z" fill="black"/>
</g>
<g opacity="0.2">
<path d="M109.425 153.702C109.448 153.589 109.447 153.471 109.421 153.358C109.395 153.245 109.346 153.139 109.276 153.047C109.207 152.911 109.09 152.806 108.947 152.753C108.805 152.7 108.648 152.704 108.507 152.762C108.391 152.809 108.288 152.884 108.209 152.981C108.13 153.079 108.077 153.195 108.055 153.318C108.01 153.508 108.035 153.709 108.125 153.882C108.216 154.056 108.366 154.191 108.548 154.263C108.642 154.285 108.74 154.289 108.836 154.272C108.932 154.256 109.023 154.221 109.105 154.169C109.187 154.116 109.258 154.048 109.313 153.968C109.367 153.888 109.406 153.797 109.425 153.702Z" fill="black"/>
</g>
<g opacity="0.2">
<path d="M143.912 169.233C143.935 169.12 143.932 169.003 143.906 168.891C143.879 168.779 143.829 168.673 143.759 168.582V168.56C143.689 168.424 143.57 168.32 143.427 168.267C143.284 168.214 143.127 168.217 142.986 168.275C142.875 168.325 142.779 168.401 142.704 168.498C142.63 168.594 142.581 168.707 142.561 168.826C142.515 169.017 142.54 169.218 142.631 169.393C142.721 169.567 142.871 169.703 143.053 169.775C143.239 169.814 143.432 169.779 143.592 169.677C143.752 169.576 143.867 169.417 143.912 169.233Z" fill="black"/>
</g>
<path d="M124.467 145.611C124.503 146.267 118.844 147.108 111.847 147.718C104.85 148.328 99.1372 148.482 99.0558 147.831C98.9744 147.18 104.606 145.996 111.644 145.376C118.682 144.757 124.431 144.97 124.467 145.611Z" fill="white"/>
<path d="M133.168 145.092C133.218 145.738 131.975 146.358 130.402 146.475C128.829 146.593 127.505 146.163 127.459 145.517C127.414 144.871 128.648 144.247 130.226 144.129C131.803 144.012 133.118 144.455 133.168 145.092Z" fill="white"/>
<path d="M120.024 163.407C120.106 164.044 113.547 165.377 105.334 165.893C97.1215 166.408 90.45 165.915 90.45 165.278C90.45 164.641 97.0537 164.062 105.185 163.542C113.317 163.022 119.943 162.751 120.024 163.407Z" fill="white"/>
<g opacity="0.2">
<path d="M55.3701 152.961C60.7941 155.515 67.1221 153.865 73.0252 152.907C88.3661 150.371 104.173 152.627 119.581 150.398C125.963 149.494 132.237 147.786 138.696 147.601C145.21 147.411 151.709 148.771 158.214 148.369C162.16 148.129 165.324 148.477 168.976 146.977C168.203 144.884 162.521 145.978 158.336 146.204C145.178 146.918 133.864 147.601 120.725 148.523C98.6672 150.073 77.491 150.896 55.4334 152.591" fill="black"/>
</g>
<g opacity="0.2">
<path d="M159.199 164.188C146.032 164.731 134.709 165.264 121.556 165.996C99.4806 167.258 78.2501 168.157 56.1699 169.572C61.5532 172.198 67.9219 170.652 73.8296 169.753C89.1976 167.42 104.972 169.879 120.386 167.854C126.777 167.018 133.091 165.409 139.537 165.309C145.982 165.21 152.532 166.665 159.045 166.335C162.987 166.146 166.151 166.534 169.825 165.083C169.084 163 163.384 164.017 159.199 164.188Z" fill="black"/>
</g>
<g opacity="0.3">
<path d="M178.486 115.21C178.251 112.787 132.31 87.1858 128.187 84.6772C125.105 82.8104 121.606 83.9178 119.667 85.0343C102.984 94.6528 63.8587 119.305 60.4822 121.646C58.6245 122.93 56.3826 123.906 55.3701 124.702L55.4786 132.77L55.447 136.354C56.3916 138.935 57.9375 140.748 60.6314 140.21C63.5604 139.627 65.278 136.268 68.1843 135.59C71.5336 134.804 74.4852 137.85 76.3203 140.798C78.1554 143.745 80.0855 147.162 83.4664 147.799C86.5174 148.369 89.4735 146.307 91.4036 143.876C93.3336 141.444 94.6806 138.556 96.8728 136.363C101.004 132.241 107.45 131.342 113.217 132.219C118.985 133.095 124.4 135.477 130.013 137.064C135.627 138.651 141.815 139.401 147.162 137.064C150.516 135.6 153.517 132.951 157.179 132.788C162.083 132.567 166.427 136.942 171.299 136.35C172.232 136.267 173.138 135.992 173.96 135.541C174.781 135.091 175.501 134.475 176.072 133.733L175.9 127.405C176.764 123.612 178.884 119.328 178.486 115.21Z" fill="black"/>
</g>
<path d="M178.486 109.98C178.884 114.112 178.825 120.376 177.944 124.16C177.062 127.943 175.15 130.628 171.281 131.116C166.408 131.708 162.065 127.337 157.161 127.554C153.499 127.717 150.498 130.37 147.144 131.83C141.793 134.158 135.605 133.407 129.995 131.83C124.386 130.253 118.967 127.861 113.199 126.985C107.432 126.108 100.995 127.007 96.8547 131.129C94.6625 133.322 93.3201 136.214 91.3855 138.646C89.451 141.078 86.4994 143.135 83.4484 142.565C80.0674 141.932 78.1193 138.497 76.3023 135.564C74.4852 132.63 71.5337 129.57 68.1663 130.356C65.2599 131.039 63.5423 134.393 60.6134 134.976C57.9014 135.514 55.2752 133.331 54.3306 130.745C53.7204 129.082 53.5305 126.863 53.5622 124.765C53.5813 123.746 53.8287 122.745 54.2864 121.834C54.744 120.924 55.4001 120.127 56.2064 119.504C57.2188 118.722 58.6065 117.696 60.4642 116.417C63.8406 114.084 102.952 89.4324 119.649 79.8048C121.588 78.6884 125.073 77.581 128.169 79.4477C132.31 81.9428 178.251 107.576 178.486 109.98Z" fill="#FF725E"/>
<g opacity="0.9">
<path d="M178.486 109.98C178.884 114.112 178.825 120.376 177.944 124.16C177.062 127.943 175.15 130.628 171.281 131.116C166.408 131.708 162.065 127.337 157.161 127.554C153.499 127.717 150.498 130.37 147.144 131.83C141.793 134.158 135.605 133.407 129.995 131.83C124.386 130.253 118.967 127.861 113.199 126.985C107.432 126.108 100.995 127.007 96.8547 131.129C94.6625 133.322 93.3201 136.214 91.3855 138.646C89.451 141.078 86.4994 143.135 83.4484 142.565C80.0674 141.932 78.1193 138.497 76.3023 135.564C74.4852 132.63 71.5337 129.57 68.1663 130.356C65.2599 131.039 63.5423 134.393 60.6134 134.976C57.9014 135.514 55.2752 133.331 54.3306 130.745C53.7204 129.082 53.5305 126.863 53.5622 124.765C53.5813 123.746 53.8287 122.745 54.2864 121.834C54.744 120.924 55.4001 120.127 56.2064 119.504C57.2188 118.722 58.6065 117.696 60.4642 116.417C63.8406 114.084 102.952 89.4324 119.649 79.8048C121.588 78.6884 125.073 77.581 128.169 79.4477C132.31 81.9428 178.251 107.576 178.486 109.98Z" fill="white"/>
</g>
<path opacity="0.3" d="M65.6531 116.616C65.328 116.798 65.0763 117.087 64.9412 117.434C64.806 117.781 64.7958 118.164 64.9123 118.518C65.0288 118.872 65.2647 119.174 65.5797 119.373C65.8946 119.572 66.2689 119.655 66.6384 119.608C89.4237 117.936 155.303 111.707 168.551 110.451C168.705 110.438 168.852 110.377 168.969 110.276C169.087 110.175 169.169 110.04 169.205 109.889C169.24 109.739 169.227 109.581 169.168 109.438C169.108 109.295 169.004 109.175 168.872 109.095C161.021 104.602 132.526 88.3387 125.371 84.7769C124.855 84.521 124.285 84.3946 123.709 84.4088C123.133 84.423 122.57 84.5772 122.067 84.8583L65.6531 116.616Z" fill="white"/>
<path d="M134.719 116.914C134.782 117.561 120.309 119.522 102.396 121.294C84.4834 123.066 69.9064 123.974 69.8522 123.328C69.798 122.682 84.2574 120.72 102.175 118.948C120.092 117.176 134.655 116.268 134.719 116.914Z" fill="white"/>
<path d="M156.392 115.617C156.555 116.571 154.769 117.674 152.374 117.805C149.978 117.936 148.089 117.036 148.143 116.069C148.197 115.102 150.01 114.401 152.179 114.261C154.349 114.121 156.238 114.65 156.392 115.617Z" fill="white"/>
<path d="M87.5344 135.302C86.8067 134.904 85.9253 135.329 85.0981 135.424C84.0756 135.491 83.0614 135.202 82.2279 134.606C81.3736 134.054 80.5555 133.177 79.751 132.558C79.6006 132.44 79.4275 132.354 79.2424 132.306C79.0572 132.257 78.8641 132.248 78.6752 132.278C78.3181 132.359 78.1147 132.671 78.3317 133.232C79.2357 134.619 80.1984 136.025 81.4957 137.092C82.7929 138.158 84.4744 138.845 86.1151 138.547C86.5005 138.497 86.8703 138.363 87.1983 138.154C87.5263 137.946 87.8046 137.668 88.0135 137.34C88.2072 137.003 88.2655 136.605 88.1765 136.226C88.0876 135.848 87.858 135.517 87.5344 135.302Z" fill="white"/>
<path d="M58.3397 130.591C58.0908 130.159 57.9527 129.671 57.9374 129.172C57.9254 128.675 57.8649 128.18 57.7566 127.694C57.6984 127.451 57.5872 127.223 57.4309 127.028C57.2746 126.833 57.0772 126.674 56.8526 126.564C56.7268 126.519 56.5925 126.502 56.4594 126.514C56.1644 126.546 55.8915 126.686 55.6924 126.906C55.4933 127.126 55.3818 127.411 55.3791 127.708C55.2471 129.392 55.6591 131.075 56.5543 132.508C57.047 133.218 57.7973 133.841 58.7149 133.715C58.9925 133.683 59.2504 133.555 59.4442 133.354C59.6381 133.153 59.7558 132.89 59.7771 132.612C59.8042 131.73 58.8053 131.301 58.3397 130.591Z" fill="white"/>
<path d="M172.149 109.954C171.979 109.713 171.746 109.524 171.475 109.407C167.245 107.115 158.367 103.079 158.367 103.079C158.367 103.079 164.921 107.052 168.036 108.674C168.183 108.749 168.308 108.862 168.395 109.003C168.483 109.143 168.531 109.304 168.533 109.47C168.51 110.039 167.927 110.175 167.448 110.229C160.216 111.097 153.02 111.432 145.811 112.295C145.811 112.295 153.594 112.95 160.37 112.295C167.145 111.639 170.648 111.843 171.792 111.138C172.406 110.74 172.334 110.288 172.149 109.954Z" fill="white"/>
<g opacity="0.3">
<path d="M154.132 101.935C153.757 100.516 152.256 99.7203 150.86 99.2683C147.623 98.2107 144.17 98.0434 140.771 97.9123C126.122 97.3473 111.025 97.379 97.406 102.794L90.4316 102.527C91.295 110.433 107.264 112.874 115.893 113.488C124.521 114.103 133.191 112.733 141.553 110.523C145.137 109.578 148.753 108.444 151.768 106.279C153.228 105.253 154.584 103.635 154.132 101.935Z" fill="black"/>
</g>
<path d="M150.918 100.904C151.181 99.2555 151.087 97.5697 150.643 95.9604C150.199 94.351 149.415 92.8556 148.344 91.5748C147.273 90.2941 145.94 89.2578 144.435 88.5358C142.93 87.8138 141.287 87.4229 139.618 87.3894C141.521 81.9021 138.999 75.2261 133.941 72.3649C132.016 71.2756 129.814 70.7015 127.952 69.5037C126.09 68.3059 124.553 66.1318 125.073 63.9803C125.575 61.9147 127.835 60.3643 127.243 58.1314C127.081 57.5976 126.791 57.1118 126.396 56.7175C126.002 56.3232 125.516 56.0325 124.983 55.8714C123.071 55.2341 121.145 55.8714 119.369 56.6489C114.849 58.5744 110.568 61.3271 107.617 65.2369C104.665 69.1467 103.21 74.3944 104.543 79.1223C103.066 79.1196 101.608 79.4445 100.272 80.0737C98.9361 80.7029 97.7565 81.6207 96.8183 82.7609C95.88 83.901 95.2065 85.2352 94.8462 86.6671C94.4858 88.0991 94.4478 89.5931 94.7347 91.0415C93.6742 91.2213 92.6795 91.6761 91.8498 92.3606C91.0202 93.0451 90.3847 93.9353 90.0067 94.9423C89.7502 95.6814 89.598 96.4528 89.5547 97.2339C89.4389 99.1565 89.8321 101.076 90.6948 102.798C91.5574 104.52 92.8589 105.984 94.468 107.042C98.4998 109.754 106.003 112.629 119.156 111.436C142.38 109.325 150.918 100.904 150.918 100.904Z" fill="#FF725E"/>
<g opacity="0.9">
<path d="M150.918 100.904C151.181 99.2555 151.087 97.5697 150.643 95.9604C150.199 94.351 149.415 92.8556 148.344 91.5748C147.273 90.2941 145.94 89.2578 144.435 88.5358C142.93 87.8138 141.287 87.4229 139.618 87.3894C141.521 81.9021 138.999 75.2261 133.941 72.3649C132.016 71.2756 129.814 70.7015 127.952 69.5037C126.09 68.3059 124.553 66.1318 125.073 63.9803C125.575 61.9147 127.835 60.3643 127.243 58.1314C127.081 57.5976 126.791 57.1118 126.396 56.7175C126.002 56.3232 125.516 56.0325 124.983 55.8714C123.071 55.2341 121.145 55.8714 119.369 56.6489C114.849 58.5744 110.568 61.3271 107.617 65.2369C104.665 69.1467 103.21 74.3944 104.543 79.1223C103.066 79.1196 101.608 79.4445 100.272 80.0737C98.9361 80.7029 97.7565 81.6207 96.8183 82.7609C95.88 83.901 95.2065 85.2352 94.8462 86.6671C94.4858 88.0991 94.4478 89.5931 94.7347 91.0415C93.6742 91.2213 92.6795 91.6761 91.8498 92.3606C91.0202 93.0451 90.3847 93.9353 90.0067 94.9423C89.7502 95.6814 89.598 96.4528 89.5547 97.2339C89.4389 99.1565 89.8321 101.076 90.6948 102.798C91.5574 104.52 92.8589 105.984 94.468 107.042C98.4998 109.754 106.003 112.629 119.156 111.436C142.38 109.325 150.918 100.904 150.918 100.904Z" fill="white"/>
</g>
<g opacity="0.1">
<path d="M104.548 79.1584C103.946 83.6242 108.123 88.4018 112.385 90.4584C116.648 92.515 121.615 92.4608 126.343 92.0992C131.071 91.7376 135.889 91.1319 140.495 92.2529C145.101 93.3738 150.105 96.2169 150.918 100.886C147.592 98.3096 142.742 97.722 138.533 97.5232C134.325 97.3243 130.135 97.9435 125.95 98.4272C121.871 98.8806 117.748 98.7283 113.714 97.9752C109.565 97.2565 106.188 95.792 103.594 92.4743C100.999 89.1566 100.339 83.0094 102.432 79.3663C103.12 79.1773 103.836 79.107 104.548 79.1584Z" fill="#FF725E"/>
</g>
<g opacity="0.1">
<path d="M132.499 81.9971C126.158 80.8626 122.763 80.0038 119.78 76.8398C117.71 74.6295 117.249 71.2666 117.909 68.3105C118.569 65.3545 120.191 62.7103 121.891 60.2017C119.409 61.6551 117.293 63.6579 115.706 66.0563C114.118 68.4547 113.101 71.1849 112.733 74.0374C112.453 76.3652 112.638 78.8241 113.782 80.8716C115.753 84.3927 119.436 85.3329 123.437 85.8436C130.47 86.7476 137.277 84.3113 139.898 87.3759C139.713 84.1938 135.645 82.5576 132.499 81.9971Z" fill="#FF725E"/>
</g>
<g opacity="0.1">
<path d="M131.754 102.731C128.192 102.785 124.671 103.476 121.127 103.838C115.839 104.38 110.356 104.159 105.429 102.161C100.502 100.163 96.1947 96.1946 94.7257 91.0825L93.6364 91.3899C92.8997 97.0308 95.3269 101.334 99.761 104.896C104.195 108.457 110.157 109.868 115.812 109.316C121.236 108.787 126.501 107.305 131.934 106.866C133.863 106.683 135.804 107.041 137.539 107.901L142.561 105.913C139.668 103.856 135.315 102.676 131.754 102.731Z" fill="#FF725E"/>
</g>
<path d="M97.6322 92.9444C97.3384 93.0438 96.7598 92.3703 96.4163 91.0279C96.016 89.245 96.1789 87.3819 96.8825 85.6955C97.586 84.0091 98.7955 82.5826 100.344 81.6127C101.546 80.9167 102.428 80.8579 102.563 81.1336C102.699 81.4093 102.157 82.0105 101.402 82.9009C99.4137 85.101 98.2423 87.9177 98.0842 90.8787C97.9757 92.0404 97.9621 92.8449 97.6322 92.9444Z" fill="white"/>
<path d="M110.871 64.5405C111.246 64.875 110.731 66.0231 110.103 67.7633C108.359 72.1366 108.169 76.976 109.565 81.4725C110.053 83.2579 110.469 84.4421 110.071 84.7495C109.673 85.0568 108.516 84.3336 107.305 82.5347C106.605 81.4741 106.069 80.3147 105.714 79.0949C104.811 76.0519 104.94 72.7958 106.08 69.8335C106.53 68.6459 107.154 67.5322 107.933 66.5293C109.285 64.8298 110.528 64.2241 110.871 64.5405Z" fill="white"/>
<path d="M91.3492 100.317C91.0509 100.412 90.5944 100.023 90.287 99.1867C90.114 98.6988 90.0238 98.1855 90.0203 97.6679C90.003 96.3878 90.3975 95.136 91.1458 94.0971C91.4475 93.6761 91.8153 93.3067 92.2351 93.0033C92.9674 92.497 93.5685 92.4428 93.7538 92.6914C93.9392 92.94 93.7538 93.4508 93.4917 94.0971C92.7403 95.653 92.2181 97.3094 91.9413 99.0149C91.8012 99.7019 91.6656 100.217 91.3492 100.317Z" fill="white"/>
<path d="M87.9953 109.809C87.8461 109.868 86.698 109.926 86.8562 111.106C87.0144 112.286 86.7749 114.139 87.8009 113.818C88.827 113.497 89.7716 112.751 89.4959 111.825C89.2202 110.898 88.8586 109.456 87.9953 109.809Z" fill="#FF725E"/>
<path d="M105.108 99.1774C105.081 99.3401 104.516 100.344 105.601 100.836C106.686 101.329 108.127 102.522 108.403 101.487C108.679 100.452 108.552 99.2497 107.621 98.9921C106.69 98.7344 105.271 98.2598 105.108 99.1774Z" fill="#FF725E"/>
<path d="M129.991 73.6757C129.964 73.8384 129.399 74.8419 130.484 75.3391C131.568 75.8363 133.01 77.0205 133.29 75.9854C133.571 74.9504 133.435 73.748 132.504 73.4904C131.573 73.2328 130.176 72.7717 129.991 73.6757Z" fill="#FF725E"/>
<path d="M119.12 70.1186C119.093 70.2768 118.528 71.2803 119.613 71.7775C120.698 72.2747 122.139 73.4589 122.415 72.4238C122.691 71.3888 122.564 70.1864 121.633 69.9288C120.702 69.6712 119.283 69.1966 119.12 70.1186Z" fill="#FF725E"/>
<path d="M117.262 90.707C117.353 90.7793 117.787 91.4528 118.447 90.951C119.107 90.4493 120.313 89.9431 119.767 89.4323C119.22 88.9216 118.438 88.6097 117.959 89.0978C117.479 89.586 116.752 90.3092 117.262 90.707Z" fill="#FF725E"/>
<path d="M126.976 77.8115C127.066 77.8838 127.5 78.5573 128.16 78.051C128.82 77.5448 130.027 77.0476 129.48 76.5368C128.933 76.0261 128.151 75.7142 127.672 76.2023C127.193 76.6905 126.461 77.4137 126.976 77.8115Z" fill="#FF725E"/>
<path d="M118.239 75.8362C118.325 75.904 118.759 76.582 119.423 76.0757C120.087 75.5695 121.285 75.0723 120.743 74.5615C120.2 74.0508 119.409 73.7344 118.935 74.2225C118.46 74.7107 117.724 75.4339 118.239 75.8362Z" fill="#FF725E"/>
<path d="M94.2783 110.437C94.0839 110.487 91.5211 111.088 92.3844 111.793C93.2477 112.498 93.4873 112.697 94.2783 112.159C95.0693 111.621 94.7077 110.329 94.2783 110.437Z" fill="#FF725E"/>
<path d="M113.927 99.0826C113.732 99.1324 111.169 99.7335 112.037 100.439C112.905 101.144 113.14 101.343 113.927 100.805C114.713 100.267 114.356 98.9877 113.927 99.0826Z" fill="#FF725E"/>
<path d="M126.56 99.5124C126.366 99.5621 123.803 100.163 124.671 100.868C125.539 101.573 125.774 101.772 126.56 101.23C127.347 100.688 127.012 99.3994 126.56 99.5124Z" fill="#FF725E"/>
<path d="M115.68 86.8385C115.486 86.8882 112.923 87.4894 113.791 88.1945C114.659 88.8996 114.894 89.0985 115.68 88.5606C116.467 88.0227 116.11 86.7255 115.68 86.8385Z" fill="#FF725E"/>
<path d="M97.8716 103.924C97.6773 103.974 95.1144 104.575 95.9823 105.28C96.8501 105.985 97.0852 106.184 97.8716 105.642C98.6581 105.099 98.301 103.811 97.8716 103.924Z" fill="#FF725E"/>
<path d="M123.767 98.4632C123.649 98.4903 122.112 98.8519 122.632 99.2813C123.152 99.7107 123.292 99.8282 123.767 99.4983C124.241 99.1683 124.024 98.3954 123.767 98.4632Z" fill="#FF725E"/>
<path d="M107.911 112.43C107.716 112.48 105.153 113.081 106.021 113.786C106.889 114.491 107.124 114.69 107.911 114.148C108.697 113.605 108.34 112.322 107.911 112.43Z" fill="#FF725E"/>
<path d="M152.934 103.576C152.74 103.625 150.177 104.227 151.04 104.932C151.904 105.637 152.143 105.836 152.934 105.298C153.725 104.76 153.364 103.467 152.934 103.576Z" fill="#FF725E"/>
<path d="M113.023 78.6479C112.828 78.6976 110.265 79.2987 111.133 80.0039C112.001 80.709 112.236 80.9079 113.023 80.3655C113.809 79.8231 113.452 78.5168 113.023 78.6479Z" fill="#FF725E"/>
<path d="M117.619 62.2541C117.425 62.3038 114.862 62.9049 115.73 63.6101C116.598 64.3152 116.833 64.5141 117.619 63.9717C118.406 63.4293 118.049 62.1411 117.619 62.2541Z" fill="#FF725E"/>
<path d="M132.802 87.322C132.608 87.3717 130.045 87.9729 130.913 88.678C131.781 89.3831 132.016 89.582 132.802 89.0441C133.589 88.5063 133.231 87.2361 132.802 87.322Z" fill="#FF725E"/>
<path d="M91.1502 113.393C90.6123 113.393 90.0609 113.633 90.2959 113.985C90.3292 114.064 90.3798 114.134 90.4439 114.19C90.5081 114.246 90.5841 114.287 90.6662 114.309C90.7484 114.332 90.8346 114.336 90.9184 114.32C91.0023 114.305 91.0815 114.271 91.1502 114.22C91.5163 114.026 91.1502 113.393 91.1502 113.393Z" fill="#FF725E"/>
<path d="M160.591 106.64C160.053 106.64 159.502 106.875 159.737 107.232C159.771 107.31 159.822 107.379 159.886 107.435C159.95 107.491 160.026 107.531 160.108 107.554C160.19 107.576 160.276 107.58 160.359 107.565C160.443 107.55 160.522 107.517 160.591 107.467C160.957 107.268 160.591 106.64 160.591 106.64Z" fill="#FF725E"/>
<path d="M124.042 102.247C123.504 102.247 122.953 102.486 123.193 102.839C123.226 102.916 123.276 102.986 123.34 103.041C123.404 103.097 123.48 103.138 123.561 103.16C123.643 103.183 123.728 103.187 123.812 103.172C123.895 103.157 123.974 103.123 124.042 103.074C124.413 102.879 124.042 102.247 124.042 102.247Z" fill="#FF725E"/>
<path d="M97.7088 112.928C97.1709 112.928 96.6195 113.167 96.8545 113.52C96.8885 113.598 96.9394 113.667 97.0036 113.723C97.0678 113.778 97.1436 113.819 97.2255 113.841C97.3074 113.864 97.3934 113.868 97.477 113.853C97.5606 113.838 97.6398 113.804 97.7088 113.755C98.084 113.561 97.7088 112.928 97.7088 112.928Z" fill="#FF725E"/>
<path d="M153.757 107.001C153.219 107.001 152.668 107.237 152.903 107.594C152.937 107.671 152.988 107.741 153.052 107.796C153.116 107.852 153.192 107.893 153.274 107.915C153.356 107.938 153.441 107.942 153.525 107.927C153.609 107.912 153.688 107.878 153.757 107.829C154.132 107.63 153.757 107.001 153.757 107.001Z" fill="#FF725E"/>
<path d="M107.951 96.6826C107.413 96.6826 106.862 96.9177 107.101 97.2747C107.135 97.3525 107.185 97.4218 107.249 97.4774C107.313 97.533 107.388 97.5736 107.47 97.5962C107.551 97.6188 107.637 97.6227 107.72 97.6078C107.804 97.5928 107.882 97.5593 107.951 97.5098C108.322 97.3109 107.951 96.6826 107.951 96.6826Z" fill="#FF725E"/>
<path d="M102.116 90.5898C101.578 90.5898 101.027 90.8294 101.266 91.182C101.3 91.2597 101.35 91.329 101.414 91.3846C101.478 91.4403 101.553 91.4809 101.635 91.5034C101.716 91.526 101.802 91.5299 101.885 91.515C101.968 91.5 102.047 91.4665 102.116 91.417C102.486 91.2226 102.116 90.5898 102.116 90.5898Z" fill="#FF725E"/>
<path d="M91.2003 111.458C90.8387 111.458 90.4635 111.621 90.6217 111.861C90.6452 111.913 90.68 111.959 90.7236 111.997C90.7671 112.034 90.8184 112.061 90.8737 112.076C90.929 112.091 90.9869 112.094 91.0434 112.084C91.0998 112.074 91.1534 112.052 91.2003 112.019C91.4489 111.888 91.2003 111.458 91.2003 111.458Z" fill="#FF725E"/>
<path d="M146.249 108.896C145.883 108.896 145.512 109.059 145.671 109.298C145.694 109.351 145.729 109.397 145.772 109.434C145.816 109.471 145.867 109.499 145.923 109.514C145.978 109.529 146.036 109.532 146.092 109.522C146.149 109.512 146.202 109.49 146.249 109.456C146.498 109.325 146.249 108.896 146.249 108.896Z" fill="#FF725E"/>
<path d="M139.876 101.898C139.514 101.898 139.139 102.057 139.302 102.296C139.324 102.349 139.358 102.396 139.401 102.434C139.444 102.471 139.496 102.499 139.551 102.514C139.606 102.529 139.664 102.532 139.72 102.522C139.777 102.511 139.83 102.488 139.876 102.454C140.12 102.323 139.876 101.898 139.876 101.898Z" fill="#FF725E"/>
<path d="M112.62 86.8286C112.259 86.8286 111.884 86.9868 112.046 87.2264C112.069 87.2789 112.103 87.3257 112.146 87.3635C112.189 87.4012 112.24 87.4289 112.295 87.4445C112.35 87.46 112.407 87.4632 112.464 87.4536C112.52 87.444 112.574 87.422 112.62 87.3891C112.869 87.2354 112.62 86.8286 112.62 86.8286Z" fill="#FF725E"/>
<path d="M126.804 74.6431C126.442 74.6431 126.067 74.8058 126.225 75.0453C126.249 75.0976 126.284 75.1441 126.327 75.1813C126.371 75.2186 126.422 75.2457 126.477 75.2608C126.533 75.276 126.591 75.2787 126.647 75.2688C126.704 75.2589 126.757 75.2366 126.804 75.2035C127.053 75.0725 126.804 74.6431 126.804 74.6431Z" fill="#FF725E"/>
<path d="M120.544 65.6621C120.182 65.6621 119.807 65.8203 119.97 66.0599C119.992 66.1124 120.026 66.1592 120.069 66.197C120.112 66.2347 120.163 66.2624 120.218 66.2779C120.273 66.2935 120.331 66.2967 120.387 66.2871C120.444 66.2775 120.497 66.2555 120.544 66.2226C120.792 66.087 120.544 65.6621 120.544 65.6621Z" fill="#FF725E"/>
<path d="M111.644 71.1626C111.282 71.1626 110.912 71.3208 111.07 71.5604C111.093 71.6129 111.127 71.6597 111.169 71.6975C111.212 71.7352 111.263 71.7628 111.318 71.7784C111.373 71.794 111.431 71.7971 111.487 71.7876C111.544 71.778 111.597 71.756 111.644 71.7231C111.902 71.5875 111.644 71.1626 111.644 71.1626Z" fill="#FF725E"/>
<path d="M103.16 98.2378C102.794 98.2378 102.423 98.4005 102.581 98.6401C102.605 98.6924 102.64 98.7388 102.683 98.776C102.727 98.8133 102.778 98.8405 102.833 98.8556C102.889 98.8707 102.947 98.8734 103.003 98.8635C103.06 98.8536 103.113 98.8313 103.16 98.7983C103.409 98.6627 103.16 98.2378 103.16 98.2378Z" fill="#FF725E"/>
<path d="M81.1341 114.604L80.3476 114.799C80.3476 114.799 80.0312 115.111 80.1487 115.386C80.1803 115.498 80.2415 115.599 80.3259 115.679C80.4102 115.758 80.5146 115.813 80.6278 115.838C80.777 115.838 81.0166 115.956 81.1341 115.838C81.2516 115.721 81.4505 115.798 81.5273 115.603C81.5863 115.41 81.5863 115.204 81.5273 115.011C81.4866 114.835 81.1341 114.604 81.1341 114.604Z" fill="#FF725E"/>
<path d="M140.888 98.7441L140.102 98.9385C140.102 98.9385 139.786 99.2549 139.903 99.5306C139.934 99.6427 139.995 99.7441 140.079 99.8239C140.164 99.9036 140.269 99.9585 140.382 99.9826C140.536 99.9826 140.771 100.105 140.888 99.9826C141.006 99.8606 141.205 99.9465 141.282 99.7476C141.343 99.5549 141.343 99.3481 141.282 99.1555C141.241 98.9882 140.888 98.7441 140.888 98.7441Z" fill="#FF725E"/>
<path d="M111.007 104.208L110.22 104.403C110.22 104.403 109.904 104.719 110.021 104.995C110.053 105.107 110.114 105.208 110.198 105.287C110.283 105.367 110.387 105.422 110.5 105.447C110.654 105.447 110.889 105.569 111.007 105.447C111.124 105.325 111.323 105.411 111.4 105.212C111.461 105.019 111.461 104.812 111.4 104.62C111.364 104.444 111.007 104.208 111.007 104.208Z" fill="#FF725E"/>
<path d="M83.3219 108.742C83.2269 108.918 82.8473 110.03 83.7739 110.193C84.1957 110.249 84.625 110.204 85.0259 110.062C85.2472 109.988 85.4398 109.847 85.5761 109.658C85.7125 109.469 85.7857 109.242 85.7853 109.009V108.891C85.7881 108.692 85.7361 108.497 85.6347 108.326C85.5334 108.156 85.3868 108.016 85.2112 107.924C85.1701 107.898 85.1237 107.883 85.0756 107.879C84.7288 107.805 84.3675 107.85 84.0495 108.007C83.7314 108.163 83.4752 108.422 83.3219 108.742Z" fill="#FF725E"/>
<path d="M142.258 101.044C142.163 101.221 141.806 102.333 142.71 102.495C143.132 102.552 143.561 102.507 143.962 102.364C144.182 102.29 144.374 102.149 144.509 101.96C144.645 101.771 144.717 101.544 144.717 101.311V101.198C144.72 100.999 144.669 100.802 144.567 100.631C144.466 100.459 144.319 100.319 144.143 100.226C144.102 100.203 144.058 100.188 144.012 100.181C143.665 100.109 143.304 100.154 142.986 100.311C142.668 100.467 142.412 100.725 142.258 101.044Z" fill="#FF725E"/>
<path d="M135.039 89.7627C134.94 89.9344 134.565 91.0509 135.491 91.2136C135.914 91.2708 136.343 91.2243 136.743 91.078C136.964 91.0056 137.157 90.8652 137.293 90.6768C137.43 90.4885 137.503 90.2619 137.503 90.0294V89.9118C137.505 89.7123 137.452 89.516 137.35 89.3446C137.248 89.1731 137.101 89.0332 136.924 88.94C136.884 88.9162 136.84 88.9008 136.793 88.8948C136.446 88.821 136.084 88.8665 135.766 89.024C135.447 89.1815 135.191 89.4417 135.039 89.7627Z" fill="#FF725E"/>
<path d="M111.707 66.896C111.612 67.0677 111.255 68.1842 112.159 68.3469C112.581 68.4041 113.011 68.3576 113.411 68.2113C113.633 68.1386 113.826 67.9975 113.962 67.8083C114.099 67.6191 114.172 67.3914 114.171 67.1581V67.0451C114.174 66.846 114.122 66.6498 114.021 66.4783C113.919 66.3068 113.773 66.1667 113.597 66.0733C113.555 66.05 113.509 66.0347 113.461 66.0281C113.114 65.9543 112.752 65.9998 112.433 66.1573C112.115 66.3148 111.859 66.575 111.707 66.896Z" fill="#FF725E"/>
<path d="M100.647 94.3321C100.552 94.5084 100.195 95.6203 101.122 95.783C101.544 95.8391 101.973 95.7942 102.374 95.6519C102.594 95.5779 102.786 95.4363 102.921 95.2473C103.057 95.0582 103.129 94.8313 103.129 94.5988V94.4677C103.132 94.2684 103.081 94.072 102.979 93.9005C102.878 93.7289 102.731 93.5888 102.555 93.4959C102.513 93.4719 102.467 93.4566 102.419 93.4507C102.067 93.3742 101.7 93.4199 101.378 93.5801C101.056 93.7404 100.798 94.0056 100.647 94.3321Z" fill="#FF725E"/>
<path d="M110.808 89.1343C110.903 89.1749 111.481 89.2834 111.391 88.6461C111.344 88.3653 111.25 88.0946 111.111 87.8461C111.064 87.7249 110.978 87.623 110.867 87.5566C110.755 87.4902 110.625 87.4632 110.496 87.4799H110.442C110.34 87.5167 110.252 87.5843 110.19 87.6735C110.129 87.7626 110.097 87.8688 110.098 87.9771C110.091 88.0068 110.091 88.0378 110.098 88.0675C110.114 88.2917 110.187 88.5079 110.312 88.695C110.436 88.8821 110.607 89.0335 110.808 89.1343Z" fill="#FF725E"/>
<path d="M111.061 75.4388C111.156 75.4795 111.734 75.5925 111.644 74.9552C111.598 74.6742 111.503 74.4034 111.364 74.1551C111.317 74.034 111.231 73.9321 111.12 73.8657C111.008 73.7993 110.878 73.7723 110.749 73.789H110.695C110.592 73.8252 110.504 73.8927 110.442 73.982C110.381 74.0713 110.349 74.1777 110.351 74.2862C110.344 74.3159 110.344 74.3469 110.351 74.3766C110.366 74.6003 110.439 74.8162 110.564 75.0026C110.688 75.1891 110.86 75.3395 111.061 75.4388Z" fill="#FF725E"/>
<path d="M118.56 67.981C118.655 68.0217 119.233 68.1302 119.143 67.4929C119.094 67.2126 119 66.9422 118.863 66.6928C118.815 66.5722 118.729 66.4707 118.618 66.4044C118.507 66.3381 118.376 66.3108 118.248 66.3267H118.194C118.092 66.3626 118.004 66.4294 117.943 66.5178C117.881 66.6062 117.849 66.7117 117.85 66.8194C117.846 66.8508 117.846 66.8828 117.85 66.9143C117.865 67.1386 117.938 67.355 118.063 67.5421C118.187 67.7293 118.359 67.8806 118.56 67.981Z" fill="#FF725E"/>
<path d="M125.38 73.0791C125.48 73.1198 126.054 73.2283 125.963 72.591C125.917 72.3101 125.822 72.0395 125.683 71.7909C125.637 71.6702 125.55 71.5687 125.439 71.5031C125.327 71.4374 125.197 71.4114 125.069 71.4293H125.014C124.913 71.4652 124.825 71.5321 124.763 71.6204C124.702 71.7088 124.669 71.8143 124.671 71.922C124.663 71.9532 124.663 71.9857 124.671 72.0169C124.686 72.2405 124.76 72.4562 124.884 72.6426C125.009 72.8289 125.18 72.9794 125.38 73.0791Z" fill="#FF725E"/>
<path d="M75.0321 114.713C74.7564 114.885 73.6173 115.319 73.9699 116.227C74.3225 117.136 76.1757 116.417 76.0581 115.712C75.9406 115.007 75.7643 114.275 75.0321 114.713Z" fill="#FF725E"/>
<path d="M89.5412 106.934C89.3875 106.984 89.0892 109.194 90.0474 109.533C91.0057 109.872 91.6746 109.691 91.6882 108.941C91.7017 108.191 91.7967 106.184 89.5412 106.934Z" fill="#FF725E"/>
<path d="M100.208 113.755C100.208 113.922 102.07 115.111 102.785 114.374C103.499 113.637 103.603 112.955 102.925 112.634C102.247 112.313 100.461 111.395 100.208 113.755Z" fill="#FF725E"/>
<path d="M147.994 108.611C147.994 108.773 149.856 109.94 150.57 109.225C151.284 108.511 151.388 107.811 150.71 107.49C150.032 107.169 148.256 106.247 147.994 108.611Z" fill="#FF725E"/>
<path d="M92.6826 108.932C92.7142 109.293 93.0804 109.718 93.4736 109.483C93.8668 109.248 94.1426 108.697 93.8262 108.538C93.5098 108.38 92.6058 107.955 92.6826 108.932Z" fill="#FF725E"/>
<path d="M97.2343 111.056C97.2614 111.418 97.6276 111.843 98.0208 111.608C98.414 111.373 98.6898 110.821 98.3779 110.663C98.066 110.505 97.1801 110.071 97.2343 111.056Z" fill="#FF725E"/>
<path d="M148.039 105.42C148.066 105.782 148.432 106.211 148.826 105.971C149.219 105.732 149.495 105.185 149.178 105.027C148.862 104.869 147.958 104.435 148.039 105.42Z" fill="#FF725E"/>
<path d="M125.046 109.289C125.078 109.655 125.439 110.08 125.837 109.84C126.235 109.601 126.506 109.054 126.189 108.896C125.873 108.737 124.969 108.308 125.046 109.289Z" fill="#FF725E"/>
<path d="M134.574 101.297C134.601 101.659 134.967 102.084 135.36 101.849C135.754 101.614 136.029 101.062 135.713 100.904C135.397 100.746 134.493 100.312 134.574 101.297Z" fill="#FF725E"/>
<path d="M123.848 76.0489C123.88 76.4105 124.246 76.8354 124.639 76.6004C125.032 76.3653 125.308 75.8139 124.992 75.6557C124.675 75.4975 123.771 75.0636 123.848 76.0489Z" fill="#FF725E"/>
<path d="M114.094 70.611C114.121 70.9726 114.487 71.3975 114.88 71.1625C115.274 70.9274 115.549 70.376 115.233 70.2178C114.916 70.0596 114.012 69.6076 114.094 70.611Z" fill="#FF725E"/>
<g opacity="0.9">
<path d="M89.5548 97.2706C89.5562 97.0755 89.5698 96.8808 89.5955 96.6875C89.6555 96.1212 89.7783 95.5633 89.9616 95.0241C90.2668 94.1503 90.7713 93.3595 91.4351 92.7144C92.3328 91.8237 93.4836 91.2317 94.7302 91.0194L94.6805 91.0917C94.4445 89.8993 94.4292 88.6737 94.6353 87.4757C94.8655 86.0885 95.3795 84.7636 96.145 83.584C97.0139 82.2604 98.1892 81.1657 99.5711 80.3929C101.085 79.5224 102.797 79.0555 104.543 79.0369L104.448 79.1589C103.07 74.3858 104.575 68.4691 108.421 64.0757C110.417 61.8162 112.785 59.9159 115.423 58.4573C116.782 57.6854 118.187 56.9986 119.631 56.4007C120.36 56.0835 121.116 55.8339 121.891 55.6549C122.687 55.4666 123.512 55.4404 124.318 55.5781C125.335 55.7313 126.251 56.2784 126.867 57.1013C127.159 57.5189 127.344 58.0015 127.405 58.507C127.456 59.01 127.388 59.5178 127.206 59.9896C126.809 60.8712 126.336 61.7167 125.792 62.5163C125.276 63.2883 125.022 64.206 125.068 65.1334C125.175 66.0414 125.528 66.9028 126.09 67.6239C126.634 68.3421 127.305 68.9549 128.07 69.4319C129.588 70.3901 131.288 70.9416 132.861 71.6919C134.412 72.4001 135.798 73.4256 136.929 74.7022C137.999 75.9145 138.843 77.3092 139.419 78.8199C140.485 81.5705 140.565 84.6051 139.645 87.4079L139.564 87.2904C141.04 87.3242 142.498 87.6307 143.863 88.1944C145.077 88.7081 146.199 89.4165 147.185 90.2917C148.761 91.7062 149.917 93.5283 150.525 95.5575C150.918 96.8297 151.091 98.1596 151.036 99.4899C151.019 99.9528 150.966 100.414 150.878 100.868C150.878 100.868 150.878 100.746 150.914 100.516C150.95 100.285 150.968 99.9419 150.986 99.4899C151.019 98.1666 150.832 96.8471 150.435 95.5846C149.816 93.5814 148.659 91.7866 147.09 90.3956C146.114 89.5358 145.004 88.8411 143.804 88.339C142.458 87.776 141.018 87.4695 139.56 87.435H139.442L139.483 87.322C140.417 84.366 140.249 81.1716 139.01 78.3298C137.771 75.488 135.545 73.191 132.743 71.8636C131.189 71.1359 129.48 70.5845 127.925 69.6036C127.136 69.1109 126.444 68.4783 125.882 67.7369C125.293 66.9823 124.924 66.0798 124.815 65.1288C124.776 64.6443 124.828 64.1567 124.969 63.6915C125.117 63.2316 125.317 62.7902 125.566 62.3762C126.103 61.5894 126.572 60.7577 126.967 59.8902C127.132 59.4506 127.194 58.9789 127.148 58.5116C127.092 58.0446 126.921 57.5989 126.65 57.2143C126.07 56.4405 125.207 55.9272 124.25 55.786C122.686 55.4967 121.118 56.003 119.685 56.5951C118.25 57.1884 116.854 57.8707 115.504 58.6381C112.887 60.0799 110.537 61.9604 108.557 64.1977C104.747 68.5369 103.255 74.3813 104.597 79.0821L104.634 79.2041H104.507C102.794 79.2093 101.112 79.6544 99.6209 80.4968C98.2592 81.253 97.0995 82.3259 96.2399 83.6247C95.48 84.782 94.9675 86.0838 94.7347 87.4486C94.519 88.6261 94.519 89.8329 94.7347 91.0104V91.0736H94.676C93.4494 91.2753 92.3147 91.8498 91.4261 92.7189C90.7667 93.349 90.261 94.1222 89.9481 94.9789C89.7602 95.5122 89.6284 96.0636 89.5548 96.6242C89.5548 96.8095 89.5141 96.9496 89.5006 97.0762C89.487 97.2028 89.5548 97.2706 89.5548 97.2706Z" fill="#263238"/>
</g>
<g opacity="0.9">
<path d="M89.3786 98.1699C89.3442 98.2013 89.3062 98.2286 89.2656 98.2513L88.9311 98.4773L87.6248 99.3225L82.8065 102.396L66.8509 112.462C63.7276 114.419 60.7444 116.277 58.1996 118.189C56.9839 119.078 55.8454 120.069 54.7961 121.15C54.3416 121.646 53.9858 122.224 53.7474 122.854C53.5351 123.436 53.3998 124.044 53.3452 124.662C53.2654 125.738 53.3323 126.821 53.544 127.88C53.6991 128.684 53.9014 129.477 54.1497 130.257C54.3486 130.904 54.5249 131.396 54.6469 131.726C54.7012 131.885 54.7464 132.011 54.7825 132.111L54.8232 132.242C54.7968 132.204 54.7756 132.163 54.7599 132.12L54.6017 131.744C54.4661 131.415 54.2763 130.926 54.0593 130.285C53.7966 129.506 53.5822 128.712 53.4175 127.907C53.1882 126.837 53.1076 125.74 53.1779 124.648C53.2278 124.01 53.3616 123.38 53.5757 122.777C53.82 122.122 54.1866 121.519 54.656 121C55.7073 119.906 56.8489 118.902 58.0686 117.999C60.6224 116.069 63.6056 114.207 66.7244 112.25L82.7161 102.256C84.7592 100.995 86.4135 99.9644 87.5751 99.2457L88.904 98.4366L89.252 98.2332C89.2911 98.2063 89.3337 98.185 89.3786 98.1699Z" fill="#263238"/>
</g>
<g opacity="0.9">
<path d="M175.607 129.024C175.607 129.024 175.738 128.888 175.955 128.608C176.267 128.19 176.526 127.735 176.723 127.252C177.406 125.469 177.862 123.607 178.079 121.71C178.467 118.901 178.646 116.067 178.612 113.231C178.612 112.431 178.572 111.608 178.481 110.781C178.459 110.577 178.427 110.37 178.386 110.166C178.373 110.071 178.348 109.978 178.31 109.89C178.262 109.804 178.206 109.722 178.142 109.646C177.868 109.319 177.565 109.017 177.238 108.742C175.882 107.644 174.391 106.641 172.849 105.619C169.753 103.599 166.738 101.772 163.99 100.123C161.242 98.4729 158.747 97.0219 156.65 95.8015L151.678 92.9223L150.322 92.1404L149.974 91.9279C149.931 91.9082 149.891 91.8823 149.856 91.8511C149.901 91.8655 149.943 91.8852 149.983 91.9098L150.344 92.0952L151.7 92.8455C152.889 93.5009 154.602 94.4546 156.709 95.6569C158.815 96.8592 161.319 98.3011 164.076 99.9374C166.833 101.574 169.857 103.395 172.958 105.425C174.481 106.402 175.952 107.458 177.365 108.589C177.707 108.86 178.024 109.162 178.31 109.493C178.382 109.581 178.447 109.674 178.504 109.773C178.549 109.88 178.582 109.993 178.603 110.107C178.644 110.324 178.671 110.532 178.694 110.745C178.789 111.585 178.807 112.408 178.82 113.213C178.844 116.059 178.649 118.903 178.237 121.719C177.999 123.628 177.506 125.496 176.773 127.274C176.566 127.761 176.294 128.217 175.964 128.63C175.858 128.773 175.738 128.904 175.607 129.024Z" fill="#263238"/>
</g>
<g opacity="0.9">
<path d="M100.312 99.7154C100.175 99.6648 100.044 99.5964 99.9237 99.512C99.5785 99.3063 99.2491 99.0751 98.9383 98.8204C98.4735 98.4479 98.0383 98.0398 97.6365 97.6C96.6619 96.5105 95.8958 95.2511 95.3765 93.8846C95.1652 93.3274 94.9974 92.7547 94.8748 92.1715C94.7914 91.7797 94.7355 91.3824 94.7076 90.9828C94.685 90.8329 94.685 90.6806 94.7076 90.5308C94.7483 90.5308 94.8025 91.15 95.0421 92.1218C95.1838 92.6912 95.365 93.25 95.5845 93.7942C95.8543 94.4589 96.1762 95.1012 96.5472 95.7152C96.927 96.3241 97.3532 96.9029 97.8219 97.4464C98.2087 97.8874 98.6256 98.3012 99.0694 98.6848C99.8061 99.3493 100.344 99.6792 100.312 99.7154Z" fill="#263238"/>
</g>
<g opacity="0.9">
<path d="M124.481 91.9459C124.394 91.9713 124.304 91.9865 124.214 91.9911C124.038 91.9911 123.762 92.0498 123.446 92.077C122.5 92.1607 121.552 92.1954 120.603 92.1809C119.191 92.168 117.782 92.0303 116.395 91.7696C114.692 91.454 113.042 90.8985 111.495 90.1198C109.951 89.3231 108.558 88.2613 107.382 86.9829C106.419 85.9414 105.637 84.7469 105.067 83.4483C104.683 82.5739 104.422 81.6506 104.29 80.7046C104.254 80.4499 104.231 80.1934 104.222 79.9362C104.21 79.8462 104.21 79.755 104.222 79.665C104.222 79.665 104.272 80.0357 104.38 80.6911C104.545 81.6196 104.828 82.5233 105.221 83.3805C105.802 84.6508 106.585 85.8185 107.54 86.8383C108.709 88.0887 110.086 89.1284 111.608 89.9119C113.139 90.6773 114.768 91.2308 116.449 91.5572C117.822 91.8227 119.214 91.9739 120.612 92.0092C121.809 92.0408 122.777 92.0092 123.446 91.9775L124.219 91.9368C124.306 91.9288 124.394 91.9318 124.481 91.9459Z" fill="#263238"/>
</g>
<g opacity="0.9">
<path d="M132.68 85.6994C132.423 85.7727 132.16 85.8241 131.894 85.8531C131.387 85.9344 130.651 86.0429 129.733 86.1559C127.35 86.4967 124.933 86.5316 122.542 86.2599C120.134 85.9727 117.842 85.0629 115.893 83.6202C115.315 83.1727 114.79 82.66 114.329 82.0924C114.162 81.8981 114.058 81.7218 113.976 81.6133C113.895 81.5048 113.863 81.4415 113.872 81.437C114.503 82.1965 115.216 82.8847 115.997 83.4891C117.942 84.876 120.202 85.7553 122.573 86.0474C124.947 86.314 127.344 86.3019 129.715 86.0112L131.88 85.7852C132.145 85.7389 132.412 85.7102 132.68 85.6994Z" fill="#263238"/>
</g>
<g opacity="0.9">
<path d="M138.054 96.4067C137.823 96.4971 137.584 96.5681 137.34 96.6192C136.888 96.7367 136.201 96.8949 135.365 97.0712C133.693 97.4373 131.369 97.8757 128.784 98.2283C126.199 98.5809 123.839 98.7843 122.131 98.8792C121.276 98.9289 120.585 98.956 120.106 98.9651C119.859 98.9836 119.611 98.9836 119.364 98.9651C119.607 98.9156 119.853 98.8883 120.101 98.8837L122.117 98.721C123.821 98.5809 126.185 98.3549 128.752 98.0023C131.32 97.6497 133.657 97.2429 135.333 96.9175L137.318 96.5333C137.56 96.4742 137.806 96.4319 138.054 96.4067Z" fill="#263238"/>
</g>
<g opacity="0.9">
<path d="M123.197 58.6018C123.165 58.6707 123.126 58.7358 123.08 58.7962L122.709 59.3205C122.384 59.7725 121.909 60.4234 121.353 61.2415C120.681 62.1945 120.061 63.1828 119.495 64.2021C118.8 65.4434 118.257 66.7636 117.877 68.1345C117.518 69.5095 117.41 70.9384 117.561 72.3517C117.676 73.5052 118.001 74.6279 118.519 75.6648C118.871 76.3635 119.328 77.0038 119.875 77.5632C120.268 77.9565 120.512 78.1463 120.499 78.1644C120.485 78.1825 120.431 78.1282 120.309 78.0423C120.136 77.9142 119.97 77.7769 119.812 77.631C119.229 77.0868 118.744 76.448 118.374 75.7417C117.823 74.6954 117.473 73.5545 117.344 72.3788C117.179 70.9378 117.283 69.4787 117.651 68.0757C118.036 66.6865 118.591 65.3504 119.305 64.0981C119.885 63.0779 120.523 62.0924 121.217 61.1466C121.805 60.3375 122.302 59.7002 122.65 59.2663L123.057 58.7645C123.138 58.6515 123.188 58.5973 123.197 58.6018Z" fill="#263238"/>
</g>
</svg>
