<svg width="90" height="90" viewBox="0 0 90 90" fill="none" xmlns="http://www.w3.org/2000/svg">
<path d="M44.6497 12.8009C30.4836 13.1306 18.9284 24.6784 18.5914 38.8445C18.4423 44.6596 20.2055 50.363 23.6106 55.0793L23.8719 55.4335L23.9086 55.4848L42.813 81.1987C43.1987 81.7232 43.7049 82.1472 44.2888 82.435C44.8728 82.7228 45.5175 82.8659 46.1684 82.8523C46.8193 82.8386 47.4573 82.6686 48.0287 82.3566C48.6001 82.0446 49.0881 81.5997 49.4515 81.0595L66.5485 55.6582C69.7823 50.7245 72 45.571 72 39.4942C72.0001 35.9331 71.2878 32.4079 69.9051 29.1262C68.5224 25.8445 66.4972 22.8726 63.9487 20.3853C61.4002 17.898 58.3798 15.9456 55.0655 14.6431C51.7511 13.3406 48.2097 12.7142 44.6497 12.8009ZM45.2847 58.9115C41.3143 58.912 37.4329 57.7351 34.1313 55.5296C30.8298 53.3241 28.2564 50.189 26.7367 46.521C25.2169 42.8529 24.8191 38.8166 25.5933 34.9224C26.3676 31.0282 28.2793 27.451 31.0867 24.6433C33.894 21.8357 37.4709 19.9235 41.365 19.1487C45.2592 18.374 49.2956 18.7714 52.9638 20.2907C56.6321 21.81 59.7674 24.383 61.9733 27.6842C64.1792 30.9855 65.3566 34.8668 65.3566 38.8372C65.3566 44.1608 63.242 49.2664 59.4778 53.031C55.7137 56.7956 50.6083 58.9109 45.2847 58.9115Z" fill="#FF725E"/>
<g opacity="0.3">
<path d="M44.6497 12.8009C30.4836 13.1306 18.9284 24.6784 18.5914 38.8445C18.4423 44.6596 20.2055 50.363 23.6106 55.0793L23.8719 55.4335L23.9086 55.4848L42.813 81.1987C43.1987 81.7232 43.7049 82.1472 44.2888 82.435C44.8728 82.7228 45.5175 82.8659 46.1684 82.8523C46.8193 82.8386 47.4573 82.6686 48.0287 82.3566C48.6001 82.0446 49.0881 81.5997 49.4515 81.0595L66.5485 55.6582C69.7823 50.7245 72 45.571 72 39.4942C72.0001 35.9331 71.2878 32.4079 69.9051 29.1262C68.5224 25.8445 66.4972 22.8726 63.9487 20.3853C61.4002 17.898 58.3798 15.9456 55.0655 14.6431C51.7511 13.3406 48.2097 12.7142 44.6497 12.8009ZM45.2847 58.9115C41.3143 58.912 37.4329 57.7351 34.1313 55.5296C30.8298 53.3241 28.2564 50.189 26.7367 46.521C25.2169 42.8529 24.8191 38.8166 25.5933 34.9224C26.3676 31.0282 28.2793 27.451 31.0867 24.6433C33.894 21.8357 37.4709 19.9235 41.365 19.1487C45.2592 18.374 49.2956 18.7714 52.9638 20.2907C56.6321 21.81 59.7674 24.383 61.9733 27.6842C64.1792 30.9855 65.3566 34.8668 65.3566 38.8372C65.3566 44.1608 63.242 49.2664 59.4778 53.031C55.7137 56.7956 50.6083 58.9109 45.2847 58.9115Z" fill="black"/>
</g>
<path d="M43.067 12.8009C28.9009 13.1306 17.3458 24.6784 17.0087 38.8445C16.8596 44.6596 18.6229 50.363 22.0279 55.0793L22.2893 55.4335L22.3259 55.4848L41.2303 81.1987C41.616 81.7232 42.1222 82.1472 42.7062 82.435C43.2902 82.7228 43.9348 82.8659 44.5857 82.8523C45.2366 82.8386 45.8747 82.6686 46.4461 82.3566C47.0175 82.0446 47.5055 81.5997 47.8688 81.0595L64.9659 55.6582C68.1996 50.7245 70.4174 45.571 70.4174 39.4942C70.4174 35.9331 69.7052 32.4079 68.3224 29.1262C66.9397 25.8445 64.9145 22.8726 62.366 20.3853C59.8175 17.898 56.7972 15.9456 53.4828 14.6431C50.1685 13.3406 46.6271 12.7142 43.067 12.8009ZM43.7021 58.9115C39.7316 58.912 35.8502 57.7351 32.5487 55.5296C29.2472 53.3241 26.6738 50.189 25.154 46.521C23.6343 42.8529 23.2364 38.8166 24.0107 34.9224C24.785 31.0282 26.6967 27.451 29.5041 24.6433C32.3114 21.8357 35.8883 19.9235 39.7824 19.1487C43.6765 18.374 47.7129 18.7714 51.3812 20.2907C55.0494 21.81 58.1847 24.383 60.3906 27.6842C62.5965 30.9855 63.774 34.8668 63.774 38.8372C63.774 44.1608 61.6593 49.2664 57.8952 53.031C54.131 56.7956 49.0257 58.9109 43.7021 58.9115Z" fill="#FF725E"/>
<g opacity="0.3">
<path d="M55.2498 53.978C54.9274 54.3419 33.7002 59.9473 33.3802 60.3112C37.4493 61.552 42.4172 62.6316 46.672 62.3849C49.068 62.2481 51.5568 61.8207 53.4619 60.3454C55.367 58.8702 56.4026 56.0834 55.2498 53.978Z" fill="black"/>
</g>
<path d="M34.9777 13.4678C34.3652 14.119 33.9192 14.9086 33.6776 15.7693C33.4361 16.6301 33.4062 17.5364 33.5904 18.4113C33.776 19.2563 34.1473 20.1991 33.6832 20.9294C33.2192 21.6597 32.1396 21.7842 31.7073 22.5243C31.1944 23.3914 31.8783 24.4782 31.7928 25.4894C31.7375 25.9609 31.5162 26.3973 31.1685 26.7204C30.8207 27.0435 30.3693 27.2323 29.895 27.2528C31.119 27.9937 32.5236 28.3825 33.9543 28.3764C34.2474 27.8683 34.5397 27.3603 34.8312 26.8523C34.4941 27.3921 34.7091 28.1419 35.1707 28.5791C35.6323 29.0163 36.2771 29.1995 36.9048 29.3118C38.4106 29.5537 39.952 29.4439 41.4084 28.991C42.8647 28.538 44.1965 27.7542 45.2994 26.7009" fill="#263238"/>
<path d="M52.1039 18.7678C51.7986 18.1426 51.3541 17.5857 51.1269 16.9311C50.614 15.5267 51.0903 13.795 50.2037 12.5909C49.5736 11.7312 48.4452 11.4259 47.3925 11.2573C46.3398 11.0888 45.2236 10.9765 44.3687 10.3439C43.741 9.87738 43.3234 9.17396 42.6981 8.70745C41.8066 8.04067 40.6123 7.94053 39.5034 8.02601C38.3946 8.1115 37.2026 8.38261 36.2623 9.02985C35.322 9.6771 34.6039 10.7249 34.5795 11.868C34.5673 12.4248 34.7138 12.9866 34.6161 13.5337C34.5086 14.137 34.1276 14.6499 33.9151 15.2263C33.7151 15.845 33.7266 16.5127 33.9477 17.1242C34.1688 17.7357 34.5869 18.2564 35.1364 18.6042L44.2955 27.5361C46.0052 27.922 49.8544 26.6251 50.9438 25.2451C52.0331 23.8652 52.8708 20.3505 52.1039 18.7678Z" fill="#263238"/>
<path d="M35.1462 17.3025C35.1462 14.9846 36.5018 12.0537 38.8099 12.1539L46.1128 13.5192C46.4523 13.5342 46.7739 13.6759 47.0141 13.9165C47.2542 14.1571 47.3953 14.479 47.4097 14.8186L47.7272 32.1989H47.7761C47.7761 32.1989 46.4571 37.1912 41.6114 36.0066C40.649 35.7624 40.1459 34.7708 39.9017 33.723H39.8552C39.843 33.596 39.8357 33.4787 39.8259 33.359C39.6813 32.5755 39.6199 31.779 39.6428 30.9826C39.5377 29.583 39.5035 29.0091 39.5035 29.0286C39.5035 29.0482 36.5213 28.7257 35.6689 24.9131C35.2464 23.0373 35.1462 19.8793 35.1462 17.3025Z" fill="#FFBE9D"/>
<path d="M41.8361 19.6788C41.8386 19.743 41.8537 19.806 41.8806 19.8643C41.9075 19.9226 41.9457 19.9751 41.9928 20.0186C42.04 20.0622 42.0953 20.096 42.1556 20.1182C42.2159 20.1403 42.2799 20.1504 42.3441 20.1478C42.4077 20.1497 42.4711 20.1389 42.5305 20.1158C42.5898 20.0927 42.6439 20.0579 42.6895 20.0134C42.7351 19.969 42.7713 19.9158 42.7959 19.857C42.8205 19.7983 42.8329 19.7352 42.8326 19.6715C42.8301 19.6073 42.8149 19.5443 42.788 19.486C42.7611 19.4277 42.723 19.3752 42.6758 19.3317C42.6286 19.2881 42.5733 19.2543 42.513 19.2322C42.4528 19.21 42.3887 19.1999 42.3246 19.2026C42.2609 19.2006 42.1975 19.2115 42.1381 19.2345C42.0788 19.2576 42.0247 19.2924 41.9791 19.3369C41.9335 19.3814 41.8973 19.4345 41.8728 19.4933C41.8482 19.552 41.8357 19.6151 41.8361 19.6788Z" fill="#263238"/>
<path d="M36.7924 20.0651C36.7949 20.1292 36.81 20.1923 36.8369 20.2506C36.8638 20.3089 36.9019 20.3613 36.9491 20.4049C36.9963 20.4484 37.0516 20.4823 37.1119 20.5044C37.1722 20.5266 37.2362 20.5366 37.3004 20.534C37.3651 20.536 37.4295 20.5248 37.4897 20.501C37.5499 20.4771 37.6045 20.4412 37.6503 20.3955C37.6961 20.3497 37.732 20.295 37.7558 20.2348C37.7797 20.1747 37.7909 20.1102 37.7889 20.0455C37.7832 19.9164 37.7265 19.7947 37.6312 19.7073C37.536 19.6199 37.41 19.5737 37.2808 19.579C37.2163 19.5766 37.1519 19.5876 37.0917 19.6111C37.0315 19.6347 36.9768 19.6704 36.931 19.7159C36.8852 19.7615 36.8493 19.816 36.8254 19.8761C36.8016 19.9362 36.7903 20.0005 36.7924 20.0651Z" fill="#263238"/>
<path d="M35.7323 18.9729C35.7983 19.0535 36.2208 18.7043 36.7948 18.7067C37.3687 18.7091 37.7937 19.0486 37.8597 18.9656C37.8914 18.929 37.8255 18.7824 37.6423 18.6237C37.4028 18.4244 37.1014 18.3147 36.7899 18.3135C36.4783 18.3191 36.1789 18.4351 35.9448 18.6408C35.7738 18.7873 35.7006 18.9363 35.7323 18.9729Z" fill="#263238"/>
<path d="M41.1009 18.8414C41.179 18.9147 41.5894 18.5263 42.1975 18.4677C42.8057 18.4091 43.2942 18.6924 43.3528 18.6069C43.3821 18.5678 43.2991 18.4286 43.0866 18.2943C42.8058 18.1246 42.4772 18.0517 42.1511 18.0867C41.8266 18.1195 41.5224 18.2596 41.2865 18.4848C41.1131 18.6582 41.0618 18.8096 41.1009 18.8414Z" fill="#263238"/>
<path d="M39.4791 22.7267C39.1928 22.6579 38.8991 22.6243 38.6047 22.6266C38.4703 22.6266 38.3385 22.6021 38.3116 22.5093C38.2901 22.3701 38.3123 22.2276 38.3751 22.1014C38.4826 21.7668 38.5949 21.4127 38.7121 21.0439C39.1786 19.5369 39.5059 18.3035 39.4449 18.2839C39.3838 18.2644 38.9564 19.4734 38.4923 20.9706C38.38 21.3418 38.275 21.7033 38.1724 22.0355C38.0969 22.2046 38.0839 22.395 38.1357 22.5728C38.1595 22.6202 38.1939 22.6614 38.2363 22.6932C38.2787 22.725 38.3279 22.7465 38.38 22.756C38.4602 22.7727 38.5424 22.7785 38.6242 22.7731C38.91 22.7939 39.1972 22.7783 39.4791 22.7267Z" fill="#263238"/>
<path d="M39.506 29.0383C41.3173 28.9508 43.069 28.3632 44.5667 27.3408C44.5667 27.3408 43.4823 30.0641 39.6037 29.9445L39.506 29.0383Z" fill="#EB996E"/>
<path d="M39.7844 23.995C39.8774 23.8614 40.0029 23.7536 40.149 23.6818C40.2951 23.6101 40.4571 23.5766 40.6197 23.5847C40.7376 23.5887 40.8536 23.616 40.9609 23.665C41.0682 23.7141 41.1648 23.7839 41.245 23.8704C41.3216 23.9549 41.3704 24.0609 41.3848 24.1741C41.3992 24.2872 41.3785 24.402 41.3256 24.503C41.2459 24.6036 41.138 24.6781 41.0158 24.7173C40.8936 24.7564 40.7626 24.7584 40.6393 24.7228C40.383 24.6493 40.1439 24.5256 39.9358 24.3589C39.8728 24.3214 39.818 24.2715 39.7746 24.2124C39.7545 24.1833 39.7437 24.1488 39.7437 24.1135C39.7437 24.0781 39.7545 24.0436 39.7746 24.0145" fill="#FF725E"/>
<path d="M41.0666 22.9978C40.9787 22.9978 41.0129 23.5742 40.5464 24.0139C40.0798 24.4535 39.4595 24.4291 39.4595 24.5024C39.4595 24.539 39.6036 24.605 39.8649 24.5952C40.203 24.5781 40.5244 24.4433 40.7735 24.2142C41.0105 23.9925 41.153 23.6881 41.1716 23.3642C41.1789 23.1297 41.1057 22.9905 41.0666 22.9978Z" fill="#263238"/>
<path d="M40.903 17.0437C40.9665 17.1853 41.4917 17.0827 42.1243 17.1194C42.7568 17.156 43.2673 17.2928 43.3455 17.1584C43.3772 17.0949 43.282 16.9631 43.0695 16.836C42.7871 16.6825 42.4737 16.5948 42.1527 16.5795C41.8316 16.5643 41.5113 16.6219 41.2157 16.7481C40.9812 16.8556 40.8737 16.9753 40.903 17.0437Z" fill="#263238"/>
<path d="M36.0328 17.344C36.1451 17.4588 36.5555 17.3074 37.0586 17.2683C37.5617 17.2292 37.9941 17.2927 38.0844 17.1584C38.1235 17.0949 38.0478 16.9777 37.8548 16.8751C37.5909 16.7501 37.2977 16.7003 37.0073 16.731C36.7166 16.7519 36.4375 16.8534 36.2013 17.0241C36.0303 17.1608 35.9815 17.2879 36.0328 17.344Z" fill="#263238"/>
<path d="M47.7418 13.8516C47.3144 13.3631 46.6427 13.1701 46.0077 13.0212C43.2657 12.3827 40.4576 12.072 37.6423 12.0955C37.3786 12.711 37.8035 13.4388 38.3751 13.7783C38.9466 14.1178 39.6427 14.1886 40.2948 14.3327C40.9469 14.4768 41.6357 14.7455 41.9777 15.3097C42.3416 15.9228 42.2219 16.7239 42.5516 17.354C43.1232 18.4385 44.7669 18.5752 45.3311 19.6695C45.7585 20.4926 45.3873 21.4817 45.3897 22.4099C45.3903 22.8808 45.4912 23.3462 45.6858 23.775C45.8805 24.2038 46.1643 24.5862 46.5184 24.8966C46.8726 25.207 47.2888 25.4384 47.7394 25.5752C48.19 25.712 48.6646 25.7512 49.1315 25.69C48.8596 22.3879 48.5893 19.0865 48.3206 15.786C48.2669 15.1119 48.1912 14.3718 47.7418 13.8516Z" fill="#263238"/>
<path d="M55.4964 21.2006C54.9127 20.8098 54.2093 20.4996 53.9089 19.8646C53.4741 18.9414 54.0896 17.6957 53.4668 16.8873C52.9001 16.1545 51.5617 16.3768 51.0243 15.6172C50.6042 15.0237 50.9047 14.396 50.6995 13.8587C50.4943 13.3213 49.6273 12.933 49.0655 13.0795L45.502 20.1894C45.3921 22.4218 45.1356 23.6381 45.7804 24.8447C46.1346 25.5066 46.5645 26.1392 46.7574 26.8622C46.9504 27.5851 46.8893 28.4449 46.3495 28.9651C49.0509 28.799 51.3614 27.0478 53.4888 25.3698L55.7382 23.5942C55.9877 23.429 56.1917 23.204 56.3317 22.9396C56.6175 22.3046 56.0777 21.5914 55.4964 21.2006Z" fill="#263238"/>
<path d="M53.4717 24.7055C53.3836 24.7475 53.291 24.7794 53.1958 24.8007C52.9204 24.869 52.6353 24.8889 52.3531 24.8593C51.9037 24.8161 51.4735 24.6561 51.105 24.3953C50.6157 24.0383 50.2693 23.5188 50.1281 22.9298C50.0403 22.591 50.0212 22.2381 50.0719 21.8918C50.1442 21.5268 50.2641 21.1729 50.4285 20.8391C50.6046 20.4911 50.7289 20.1191 50.7973 19.7351C50.8329 19.5386 50.8242 19.3367 50.7718 19.144C50.7194 18.9513 50.6247 18.7727 50.4944 18.6214C50.2062 18.3307 49.7422 18.3136 49.3001 18.2037C49.0605 18.1553 48.841 18.0362 48.6699 17.8618C48.5093 17.6703 48.4112 17.4342 48.3891 17.1852C48.3255 16.6967 48.4721 16.2082 48.4965 15.7515C48.5188 15.5196 48.4879 15.2857 48.4061 15.0676C48.3149 14.8553 48.1513 14.6822 47.9445 14.5791C47.5195 14.3569 47.0213 14.3813 46.5401 14.4082C46.052 14.4585 45.559 14.3854 45.1064 14.1957C44.6696 14.0032 44.2937 13.695 44.0195 13.3042C43.78 12.9233 43.602 12.507 43.492 12.0708C43.3883 11.6686 43.2434 11.2782 43.0597 10.9057C42.8696 10.5683 42.6098 10.2752 42.2976 10.046C41.7793 9.66635 41.1535 9.46169 40.511 9.46169C39.8685 9.46169 39.2427 9.66635 38.7244 10.046C38.3647 10.2982 38.0529 10.6125 37.8036 10.9741C37.5955 11.2868 37.425 11.6229 37.2955 11.9755C37.2972 11.9505 37.3021 11.9259 37.3102 11.9022C37.3248 11.8558 37.3419 11.7826 37.3761 11.6946C37.4715 11.4292 37.5977 11.1758 37.7523 10.9399C37.9976 10.5612 38.3096 10.2302 38.6731 9.96294C39.1536 9.61176 39.7232 9.40272 40.3168 9.35966C41.0471 9.3164 41.7704 9.5222 42.3685 9.9434C42.6985 10.1817 42.9734 10.4883 43.1745 10.8422C43.3645 11.222 43.5143 11.6207 43.6214 12.0317C43.7306 12.4521 43.9036 12.8532 44.1343 13.2211C44.3944 13.5873 44.7489 13.876 45.1602 14.0565C45.5908 14.2318 46.0585 14.2964 46.5206 14.2445C47.0091 14.2201 47.5293 14.1859 48.0031 14.4326C48.2436 14.5513 48.4334 14.7523 48.538 14.9992C48.6295 15.2388 48.6646 15.4962 48.6406 15.7515C48.6113 16.24 48.4697 16.7089 48.5283 17.1608C48.5469 17.3783 48.6322 17.5847 48.7725 17.7519C48.9245 17.9033 49.1171 18.0076 49.3269 18.0523C49.5394 18.1084 49.7617 18.1353 49.9815 18.1939C50.2082 18.2437 50.4174 18.3533 50.5872 18.5114C50.7317 18.679 50.837 18.8766 50.8953 19.09C50.9536 19.3034 50.9635 19.5272 50.9243 19.7449C50.8524 20.142 50.7224 20.5263 50.5384 20.8855C50.3739 21.2107 50.254 21.5565 50.1818 21.9138C50.131 22.244 50.1459 22.581 50.2258 22.9054C50.3605 23.47 50.6889 23.9696 51.1539 24.3171C51.5085 24.5747 51.9229 24.7378 52.358 24.7909C52.7313 24.835 53.1096 24.806 53.4717 24.7055Z" fill="#455A64"/>
<path d="M56.3929 19.5982C56.4467 19.6575 56.4874 19.7274 56.5126 19.8034C56.5867 20.0251 56.5789 20.266 56.4906 20.4824C56.4291 20.6404 56.3292 20.7805 56.1999 20.8903C56.0418 21.0187 55.8503 21.0992 55.6479 21.1223C55.4028 21.1521 55.1541 21.1138 54.9293 21.0117C54.7044 20.9096 54.5119 20.7476 54.373 20.5434C54.2107 20.3081 54.1062 20.0378 54.0677 19.7545C54.0351 19.4502 54.0574 19.1424 54.1336 18.8459C54.2631 18.2378 54.5708 17.6247 54.4829 16.9409C54.4733 16.773 54.4296 16.6089 54.3544 16.4586C54.2793 16.3082 54.1742 16.1748 54.0457 16.0665C53.7416 15.881 53.3774 15.8206 53.0297 15.8979C52.6437 15.9817 52.246 15.9966 51.8549 15.9419C51.647 15.8882 51.4609 15.7713 51.3224 15.6073C51.1898 15.4416 51.0948 15.2491 51.044 15.0431C50.9709 14.647 50.9479 14.2432 50.9756 13.8414C50.9812 13.4654 50.9071 13.0925 50.7582 12.7472C50.4746 12.0896 49.9503 11.5654 49.2927 11.2817C48.665 11.0131 47.9885 11.0692 47.3803 11.1181C46.8051 11.1996 46.2207 11.1897 45.6486 11.0888C45.1786 10.9839 44.7349 10.7845 44.3444 10.5026C44.0503 10.2927 43.7893 10.04 43.5701 9.75278C43.3784 9.51263 43.2304 9.24063 43.1329 8.94922C43.2734 9.21769 43.4368 9.47348 43.6214 9.7137C44.1409 10.3588 44.8659 10.8062 45.6755 10.9813C46.2372 11.0685 46.8089 11.0685 47.3706 10.9813C47.9787 10.9276 48.6797 10.8616 49.3514 11.1401C50.047 11.4332 50.6045 11.981 50.9096 12.6715C51.0676 13.0359 51.1467 13.4296 51.1417 13.8268C51.1142 14.2155 51.1364 14.6062 51.2076 14.9893C51.24 15.1718 51.3221 15.3418 51.4449 15.4806C51.5677 15.6194 51.7265 15.7215 51.9037 15.7758C52.2763 15.8255 52.6547 15.8106 53.0223 15.7318C53.4086 15.6485 53.8122 15.7204 54.1459 15.9321C54.2894 16.0533 54.4067 16.2024 54.4907 16.3703C54.5747 16.5383 54.6235 16.7216 54.6343 16.9091C54.6683 17.2562 54.6326 17.6066 54.5293 17.9398C54.4438 18.2622 54.3388 18.5626 54.268 18.8606C54.1907 19.1419 54.1667 19.4351 54.1971 19.7252C54.2303 19.9877 54.3249 20.2388 54.4731 20.4579C54.5995 20.6486 54.7754 20.8012 54.9819 20.8993C55.1885 20.9974 55.4179 21.0373 55.6455 21.0148C55.8324 20.9961 56.0102 20.925 56.1584 20.8097C56.282 20.7112 56.3794 20.5836 56.4417 20.4384C56.5313 20.2345 56.5485 20.0062 56.4906 19.7912C56.4614 19.7252 56.4288 19.6608 56.3929 19.5982Z" fill="#263238"/>
<path d="M28.4466 25.1451C28.4011 25.3831 28.4382 25.6295 28.5517 25.8436C28.6147 25.967 28.7044 26.0748 28.8142 26.1593C28.9241 26.2438 29.0513 26.3028 29.1867 26.3321C29.3664 26.3591 29.55 26.3355 29.717 26.2638C29.8839 26.1922 30.0276 26.0755 30.1319 25.9267C30.2485 25.7518 30.3019 25.5425 30.2833 25.3332C30.2587 25.1022 30.1916 24.8778 30.0855 24.6713C29.8803 24.239 29.5213 23.7871 29.4822 23.1887C29.4612 22.8859 29.5036 22.582 29.6066 22.2964C29.7096 22.0109 29.8711 21.7499 30.0806 21.5303C30.3002 21.298 30.5622 21.1099 30.8524 20.9759C31.15 20.8445 31.4638 20.7533 31.7854 20.7048C32.0955 20.6574 32.4005 20.5813 32.6965 20.4776C32.973 20.3783 33.2057 20.1845 33.3535 19.9305C33.4792 19.6737 33.5308 19.387 33.5025 19.1025C33.4781 18.8234 33.4156 18.5489 33.3168 18.2867C33.1337 17.769 32.8992 17.2707 32.8577 16.7553C32.8185 16.281 32.9214 15.8057 33.1532 15.39C33.3531 15.0581 33.6142 14.7672 33.9226 14.5327C34.1464 14.3544 34.357 14.1601 34.5527 13.9514C34.7139 13.7698 34.8361 13.557 34.9117 13.3262C34.9117 13.3262 34.9117 13.3433 34.9117 13.375C34.9055 13.4225 34.894 13.4692 34.8776 13.5142C34.8179 13.6886 34.726 13.8502 34.6064 13.9905C34.416 14.2085 34.2085 14.411 33.9861 14.5962C33.6919 14.8304 33.4435 15.1169 33.2533 15.4413C33.0405 15.8394 32.9488 16.2911 32.9896 16.7407C33.0335 17.2292 33.2631 17.7177 33.4561 18.2355C33.5616 18.5098 33.6282 18.7975 33.6539 19.0903C33.6865 19.4033 33.6298 19.7192 33.4902 20.0013C33.3261 20.2875 33.0668 20.5071 32.7575 20.6217C32.4522 20.7318 32.1375 20.8135 31.8172 20.866C31.5083 20.9125 31.2069 20.9996 30.9208 21.1249C30.6456 21.2488 30.3968 21.4246 30.1881 21.6426C29.9918 21.8466 29.8401 22.0892 29.7425 22.3549C29.645 22.6206 29.6037 22.9037 29.6214 23.1863C29.6507 23.7334 29.9854 24.1632 30.1979 24.6224C30.3086 24.8447 30.3766 25.0858 30.3981 25.3332C30.4181 25.569 30.3541 25.8043 30.2174 25.9975C30.0998 26.1604 29.9387 26.2869 29.7525 26.3625C29.5663 26.4381 29.3626 26.4597 29.1647 26.4249C28.9284 26.3646 28.7211 26.2227 28.5794 26.0242C28.4377 25.8257 28.3708 25.5835 28.3905 25.3405C28.3968 25.2724 28.4158 25.2061 28.4466 25.1451Z" fill="#263238"/>
<path d="M29.3382 40.0393C29.3382 40.0393 29.7485 36.7542 31.3312 35.1129C32.9139 33.4716 39.5378 31.4151 39.5378 31.4151C39.5378 31.4151 39.8113 33.7574 41.3989 34.3216C43.0817 34.9224 44.982 34.6977 46.2129 33.2665C46.9574 32.3492 47.4806 31.2727 47.7419 30.1206C47.7419 30.1206 55.6529 30.8533 56.9425 33.0173C58.2321 35.1813 59.9003 43.5906 59.9003 43.5906L52.5046 45.1611L53.5109 59.6349H33.8689L34.2524 46.0501L28.9034 46.8146L29.3382 40.0393Z" fill="#455A64"/>
<path d="M51.0465 45.6246C51.0232 45.518 51.0142 45.4087 51.0196 45.2997C51.0196 45.0897 51.0196 44.7844 51.0196 44.4107C51.0196 43.6584 51.0318 42.6228 51.0562 41.4798C51.0807 40.3367 51.11 39.2987 51.1417 38.5488C51.1564 38.1727 51.171 37.8699 51.1857 37.6598C51.1839 37.5501 51.1979 37.4407 51.2272 37.335C51.2487 37.4418 51.2569 37.5509 51.2516 37.6598C51.2516 37.8699 51.2516 38.1752 51.2516 38.5488C51.2516 39.3011 51.2394 40.3367 51.215 41.4798C51.1906 42.6228 51.1613 43.6609 51.1295 44.4107C51.1149 44.7844 51.0978 45.0872 51.0856 45.2973C51.0884 45.4077 51.0752 45.5179 51.0465 45.6246Z" fill="#263238"/>
<path d="M32.4302 39.6656C32.4766 39.6534 32.9382 41.1311 33.4609 42.9458C33.9836 44.7605 34.3743 46.2577 34.3279 46.2699C34.2815 46.2821 33.8224 44.8045 33.2972 42.9922C32.7721 41.1799 32.3862 39.6803 32.4302 39.6656Z" fill="#263238"/>
<path d="M56.1266 32.4847C56.1266 32.514 55.7749 32.5799 55.2351 32.7851C53.8194 33.3269 52.641 34.3522 51.9085 35.6794C51.6301 36.1849 51.5153 36.5293 51.486 36.5196C51.4919 36.4357 51.5108 36.3533 51.5421 36.2753C51.6107 36.0529 51.6973 35.8364 51.801 35.6281C52.1448 34.937 52.6217 34.3206 53.2043 33.8143C53.7869 33.3079 54.4637 32.9217 55.196 32.6776C55.4165 32.6027 55.6428 32.5463 55.8726 32.5091C55.955 32.4854 56.0411 32.4771 56.1266 32.4847Z" fill="#263238"/>
<path d="M31.2138 35.7744C31.2578 35.7744 31.4141 36.2214 31.5606 36.7954C31.7072 37.3693 31.7878 37.8456 31.7414 37.8578C31.695 37.87 31.5411 37.4108 31.3945 36.8369C31.248 36.2629 31.1674 35.7866 31.2138 35.7744Z" fill="#263238"/>
<path d="M58.596 43.8564C58.596 43.8564 56.3807 55.1063 56.1267 56.0686C55.8727 57.0309 55.4648 59.6223 52.7806 60.1597C49.1584 60.8924 34.9362 60.377 34.9362 60.377L37.6228 56.9821L50.067 53.4918L51.7767 45.3072L58.596 43.8564Z" fill="#FFBE9D"/>
<path d="M37.3859 55.082C37.4353 55.1618 37.4708 55.2493 37.4909 55.3409C37.5639 55.5862 37.6113 55.8382 37.6326 56.0932C37.7075 56.9396 37.5308 57.7893 37.1246 58.5356C36.9085 58.9515 36.6347 59.3346 36.3113 59.6738C36.0426 59.9492 35.7188 60.1647 35.3611 60.3064C35.1211 60.397 34.8695 60.4537 34.6138 60.4749C34.5207 60.49 34.4259 60.49 34.3329 60.4749C34.6659 60.4134 34.9928 60.3227 35.3099 60.2038C35.6433 60.0541 35.9438 59.84 36.194 59.5737C36.4986 59.2409 36.7596 58.8708 36.9707 58.4721C37.3619 57.7495 37.5478 56.9335 37.508 56.1127C37.4836 55.4679 37.3542 55.0918 37.3859 55.082Z" fill="#EB996E"/>
<path d="M25.4766 41.7682C25.4766 41.7682 27.4818 48.5167 28.3122 51.4329C29.1964 54.5299 31.1283 61.5641 35.2463 60.3161C38.3799 59.3635 37.4591 55.3042 37.4591 55.3042L34.2522 46.0376L31.7585 46.4553L29.338 40.2051L25.4766 41.7682Z" fill="#FFBE9D"/>
<path d="M36.3625 55.5976C36.4745 55.0949 36.4745 54.5738 36.3625 54.0711C36.2301 53.5302 36.0035 53.0168 35.6933 52.5544C35.3022 51.9898 34.8678 51.4566 34.3939 50.9594C33.918 50.4533 33.4819 49.9111 33.0897 49.3377C32.7762 48.8645 32.5025 48.3662 32.2715 47.8478C32.1151 47.4993 31.9813 47.1412 31.8709 46.7756C31.8202 46.6438 31.7873 46.5058 31.7732 46.3652C31.8362 46.4903 31.8893 46.6202 31.932 46.7536C32.0297 46.9978 32.1762 47.3642 32.3814 47.7965C32.6237 48.3018 32.9046 48.7876 33.2216 49.2497C33.6157 49.812 34.0499 50.345 34.5209 50.8447C35.0008 51.3482 35.4372 51.8916 35.8252 52.4689C36.1411 52.9526 36.3639 53.491 36.4822 54.0564C36.5585 54.4369 36.5585 54.8288 36.4822 55.2093C36.4626 55.3117 36.434 55.4123 36.3967 55.5097C36.3897 55.5405 36.3782 55.5701 36.3625 55.5976Z" fill="#EB996E"/>
<path d="M29.3382 40.205C29.3382 40.205 29.3528 37.5183 29.1159 36.7514L27.2108 32.4966C27.2108 32.4966 26.7223 32.1962 26.4781 33.0438C26.2338 33.8913 26.9861 34.7657 26.9861 34.7657L27.0447 35.8794L26.2827 35.2493L24.8001 32.4698C24.8001 32.4698 23.7767 30.445 23.513 30.7601C23.2492 31.0752 23.3347 31.7371 23.7743 32.6041L24.7757 34.5874C24.7757 34.5874 24.9271 34.9391 24.402 34.4286C23.8769 33.9181 22.7363 31.4464 22.4994 31.1362C22.2624 30.826 21.94 29.915 21.4296 30.1275C20.9191 30.34 21.5737 31.4195 21.5737 31.4195L23.2077 35.0832C23.2077 35.0832 22.26 33.6959 22.089 33.4614C21.9181 33.2269 21.5224 32.4331 21.2122 32.0277C20.902 31.6223 20.5625 31.4659 20.3378 31.5636C20.2281 31.6031 20.1377 31.683 20.085 31.787C20.0323 31.891 20.0214 32.0112 20.0545 32.123L21.8008 35.1516C21.8008 35.1516 22.6728 36.512 22.6728 36.617C22.6728 36.7221 21.9107 36.1676 21.9107 36.1676L21.178 35.2346C21.178 35.2346 20.3867 33.8375 19.9714 33.9133C19.5562 33.989 19.6295 34.2992 19.6295 34.2992L21.095 36.8442L23.2296 39.5895L25.5109 41.856L26.8298 41.4311L29.3382 40.205Z" fill="#FFBE9D"/>
<path d="M25.1395 39.7506C25.2059 39.4753 25.2501 39.1952 25.2714 38.9128C25.3569 38.4097 25.5303 37.655 26.1483 37.1689C26.3979 36.9605 26.7099 36.8411 27.0349 36.8295H27.1448V36.7122C27.1106 36.1895 27.1301 35.6913 27.1106 35.3616C27.1264 35.18 27.1013 34.9973 27.0373 34.8267C27.0034 35.0021 26.9862 35.1804 26.986 35.3591C26.9486 35.8197 26.9347 36.2819 26.9445 36.744L27.0446 36.6267C26.6704 36.6258 26.3079 36.7573 26.0213 36.998C25.7083 37.2506 25.4695 37.5831 25.3301 37.9603C25.2205 38.2608 25.1515 38.5746 25.1249 38.8933C25.0825 39.1779 25.0875 39.4676 25.1395 39.7506Z" fill="#EB996E"/>
</svg>
